iceBlinkPico-main/projects/cachef/fully_associative_cache.vcd
$date
	Wed May  7 14:45:42 2025
$end
$version
	Icarus Verilog
$end
$timescale
	1s
$end
$scope module fully_associative_cache_tb $end
$var wire 8 ! rd_data [7:0] $end
$var wire 1 " miss $end
$var wire 1 # hit $end
$var parameter 32 $ ASSOC $end
$var parameter 32 % BLOCK_SIZE $end
$var parameter 32 & CACHE_SIZE $end
$var parameter 32 ' PERIOD $end
$var parameter 33 ( TAG_WIDTH $end
$var reg 32 ) addr [31:0] $end
$var reg 1 * clk $end
$var reg 1 + reset $end
$var reg 8 , wr_data [7:0] $end
$var reg 1 - wr_en $end
$var integer 32 . read_hits [31:0] $end
$var integer 32 / read_misses [31:0] $end
$var integer 32 0 test_read_hits [31:0] $end
$var integer 32 1 test_read_misses [31:0] $end
$var integer 32 2 test_write_hits [31:0] $end
$var integer 32 3 test_write_misses [31:0] $end
$var integer 32 4 total_accesses [31:0] $end
$var integer 32 5 write_hits [31:0] $end
$var integer 32 6 write_misses [31:0] $end
$scope module dut $end
$var wire 32 7 addr [31:0] $end
$var wire 1 * clk $end
$var wire 1 + reset $end
$var wire 8 8 wr_data [7:0] $end
$var wire 1 - wr_en $end
$var parameter 32 9 ASSOC $end
$var parameter 32 : BLOCK_OFFSET_WIDTH $end
$var parameter 32 ; BLOCK_SIZE $end
$var parameter 32 < CACHE_SIZE $end
$var parameter 32 = INDEX_WIDTH $end
$var parameter 32 > NUM_SETS $end
$var parameter 33 ? TAG_WIDTH $end
$var reg 5 @ block_offset [4:0] $end
$var reg 1 A current_hit $end
$var reg 1 B current_miss $end
$var reg 8 C current_rd_data [7:0] $end
$var reg 1 # hit $end
$var reg 2 D hit_way [1:0] $end
$var reg 1 " miss $end
$var reg 8 E rd_data [7:0] $end
$var reg 2 F replace_ptr [1:0] $end
$var reg 27 G tag [26:0] $end
$scope begin $ivl_for_loop0 $end
$var integer 32 H i [31:0] $end
$upscope $end
$scope begin $ivl_for_loop1 $end
$var integer 32 I i [31:0] $end
$upscope $end
$upscope $end
$scope begin $ivl_for_loop2 $end
$var integer 32 J i [31:0] $end
$upscope $end
$scope begin $ivl_for_loop3 $end
$var integer 32 K i [31:0] $end
$upscope $end
$scope begin $ivl_for_loop4 $end
$var integer 32 L i [31:0] $end
$upscope $end
$scope begin $ivl_for_loop5 $end
$var integer 32 M i [31:0] $end
$upscope $end
$scope begin $ivl_for_loop6 $end
$var integer 32 N i [31:0] $end
$upscope $end
$scope begin $ivl_for_loop7 $end
$var integer 32 O i [31:0] $end
$upscope $end
$scope begin $ivl_for_loop8 $end
$var integer 32 P i [31:0] $end
$upscope $end
$scope task display_test_results $end
$upscope $end
$scope task read_access $end
$var reg 32 Q read_addr [31:0] $end
$upscope $end
$scope task write_access $end
$var reg 8 R data_to_write [7:0] $end
$var reg 32 S write_addr [31:0] $end
$upscope $end
$upscope $end
$enddefinitions $end
$comment Show the parameter values. $end
$dumpall
b11011 ?
b1 >
b0 =
b10000000 <
b100000 ;
b101 :
b100 9
b11011 (
b1010 '
b10000000 &
b100000 %
b100 $
$end
#0
$dumpvars
bx S
bx R
bx Q
b0 P
b0 O
b0 N
b0 M
b0 L
b0 K
b0 J
b100 I
b100 H
b0 G
b0 F
b0 E
b0 D
b0 C
1B
0A
b0 @
b0 8
b0 7
b0 6
b0 5
b0 4
bx 3
bx 2
bx 1
bx 0
b0 /
b0 .
x-
b0 ,
1+
0*
b0 )
0#
0"
b0 !
$end
#5
b100 I
1*
#10
0*
#15
b100 I
1*
#20
0*
#25
b100 I
1*
#30
0*
#35
b100 I
1*
#40
0*
#45
b100 I
1*
#50
0*
0+
#55
0B
1A
b100 H
b1 F
1"
1*
#60
1B
b100 H
0A
b10000000 G
0*
b1 4
1-
b10101010 ,
b10101010 8
b1000000000000 )
b1000000000000 7
b10101010 R
b1000000000000 S
b0 3
b0 2
b0 1
b0 0
#65
0B
b1 D
1A
b100 H
b10 F
1*
#70
0*
#75
0"
1#
1*
b1 6
b1 3
#80
1B
b100 H
b0 D
0A
b10001010 G
0*
b10 4
b10101011 ,
b10101011 8
b1000101000000 )
b1000101000000 7
b10101011 R
b1000101000000 S
b1 J
#85
0B
b10 D
1A
b100 H
b11 F
1"
0#
1*
#90
0*
#95
0"
1#
1*
b10 6
b10 3
#100
1B
b100 H
b0 D
0A
b10010100 G
0*
b11 4
b10101100 ,
b10101100 8
b1001010000000 )
b1001010000000 7
b10101100 R
b1001010000000 S
b10 J
#105
0B
b11 D
1A
b100 H
b0 F
1"
0#
1*
#110
0*
#115
0"
1#
1*
b11 6
b11 3
#120
1B
b100 H
b0 D
0A
b10011110 G
0*
b100 4
b10101101 ,
b10101101 8
b1001111000000 )
b1001111000000 7
b10101101 R
b1001111000000 S
b11 J
#125
0B
1A
b100 H
b1 F
1"
0#
1*
#130
0*
#135
0"
1#
1*
b100 6
b100 3
#140
b10101010 C
b1 D
b100 H
1A
b10000000 G
0*
b101 4
0-
b1000000000000 )
b1000000000000 7
b1000000000000 Q
b0 3
b100 J
#145
b10101010 !
b10101010 E
1*
#150
0*
#155
1*
b1 .
b1 0
#160
b10101011 C
b100 H
b10 D
1A
b10001010 G
0*
b110 4
b1000101000000 )
b1000101000000 7
b1000101000000 Q
b1 K
#165
b10101011 !
b10101011 E
1*
#170
0*
#175
1*
b10 .
b10 0
#180
b10101100 C
b100 H
b11 D
1A
b10010100 G
0*
b111 4
b1001010000000 )
b1001010000000 7
b1001010000000 Q
b10 K
#185
b10101100 !
b10101100 E
1*
#190
0*
#195
1*
b11 .
b11 0
#200
b10101101 C
b100 H
b0 D
1A
b10011110 G
0*
b1000 4
b1001111000000 )
b1001111000000 7
b1001111000000 Q
b11 K
#205
b10101101 !
b10101101 E
1*
#210
0*
#215
1*
b100 .
b100 0
#220
b0 C
1B
b100 H
0A
b11111 @
b11111111111 G
0*
b1001 4
1-
b11111111 ,
b11111111 8
b1111111111111111 )
b1111111111111111 7
b11111111 R
b1111111111111111 S
b0 0
b100 K
#225
0B
b1 D
1A
b100 H
b10 F
b0 !
b0 E
1"
0#
1*
#230
0*
#235
0"
1#
1*
b101 6
b1 3
#240
1B
b100 H
b0 D
0A
b0 @
b10000000 G
0*
b1010 4
0-
b1000000000000 )
b1000000000000 7
b1000000000000 Q
b0 3
#245
b10101011 C
0B
b10 D
1A
b100 H
b11 F
1"
0#
1*
#250
0*
#255
b10101011 !
b10101011 E
0"
1#
1*
b1 /
b1 1
#260
b11111111 C
b100 H
b1 D
1A
b11111 @
b11111111111 G
0*
b1011 4
b1111111111111111 )
b1111111111111111 7
b1111111111111111 Q
b0 1
#265
b11111111 !
b11111111 E
1*
#270
0*
#275
1*
b101 .
b1 0
#280
b0 C
1B
b100 H
b0 D
0A
b0 @
b100000000 G
0*
b1100 4
1-
b10000 ,
b10000 8
b10000000000000 )
b10000000000000 7
b10000 R
b10000000000000 S
b0 0
#285
0B
b11 D
1A
b100 H
b0 F
b0 !
b0 E
1"
0#
1*
#290
0*
#295
0"
1#
1*
b110 6
b1 3
#300
b100 H
b11 D
1A
b1 @
0*
b1101 4
b10001 ,
b10001 8
b10000000000001 )
b10000000000001 7
b10001 R
b10000000000001 S
#305
b100 H
b11 D
1A
1*
#310
0*
#315
1*
b1 5
b1 2
#320
b100 H
b11 D
1A
b11111 @
0*
b1110 4
b11111 ,
b11111 8
b10000000011111 )
b10000000011111 7
b11111 R
b10000000011111 S
#325
b100 H
b11 D
1A
1*
#330
0*
#335
1*
b10 5
b10 2
#340
b10000 C
b100 H
b11 D
1A
b0 @
0*
b1111 4
0-
b10000000000000 )
b10000000000000 7
b10000000000000 Q
#345
b10000 !
b10000 E
1*
#350
0*
#355
1*
b110 .
b1 0
#360
b10001 C
b100 H
b11 D
1A
b1 @
0*
b10000 4
b10000000000001 )
b10000000000001 7
b10000000000001 Q
#365
b10001 !
b10001 E
1*
#370
0*
#375
1*
b111 .
b10 0
#380
b11111 C
b100 H
b11 D
1A
b11111 @
0*
b10001 4
b10000000011111 )
b10000000011111 7
b10000000011111 Q
#385
b11111 !
b11111 E
1*
#390
0*
#395
1*
b1000 .
b11 0
#400
b0 C
1B
b100 H
b0 D
0A
b10011 @
b110011001 G
0*
b10010 4
b11001100110011 )
b11001100110011 7
b11001100110011 Q
b0 3
b0 2
b0 0
#405
bx C
0B
1A
b100 H
b1 F
b0 !
b0 E
1"
0#
1*
#410
0*
#415
bx !
bx E
0"
1#
1*
b10 /
b1 1
#420
b0 C
1B
b100 H
0A
b100 @
b1000100010 G
0*
b10011 4
1-
b11001100 ,
b11001100 8
b100010001000100 )
b100010001000100 7
b11001100 R
b100010001000100 S
#425
0B
b1 D
1A
b100 H
b10 F
b0 !
b0 E
1"
0#
1*
#430
0*
#435
0"
1#
1*
b111 6
b1 3
#440
bx C
b100 H
b0 D
1A
b10011 @
b110011001 G
0*
b10100 4
0-
b11001100110011 )
b11001100110011 7
#445
bx !
bx E
1*
#450
0*
#455
1*
b1001 .
b1 0
#460
b11001100 C
b1 D
b100 H
1A
b100 @
b1000100010 G
0*
b10101 4
b100010001000100 )
b100010001000100 7
b100010001000100 Q
#465
b11001100 !
b11001100 E
1*
#470
0*
#475
1*
b1010 .
b10 0
#480
b0 C
1B
b100 H
b0 D
0A
b0 @
b100000000000 G
0*
b10110 4
b10000000000000000 )
b10000000000000000 7
b10000000000000000 Q
b0 3
b0 1
b0 0
#485
b10101011 C
0B
b10 D
1A
b100 H
b11 F
b0 !
b0 E
1"
0#
1*
#490
0*
#495
b10101011 !
b10101011 E
0"
1#
1*
b11 /
b1 1
#500
b0 C
1B
b100 H
b0 D
0A
b100000000001 G
0*
b10111 4
b10000000000100000 )
b10000000000100000 7
b10000000000100000 Q
b100000 L
#505
b10000 C
0B
b11 D
1A
b100 H
b0 F
b0 !
b0 E
1"
0#
1*
#510
0*
#515
b10000 !
b10000 E
0"
1#
1*
b100 /
b10 1
#520
b0 C
1B
b100 H
b0 D
0A
b100000000010 G
0*
b11000 4
b10000000001000000 )
b10000000001000000 7
b10000000001000000 Q
b1000000 L
#525
b10101101 C
0B
1A
b100 H
b1 F
b0 !
b0 E
1"
0#
1*
#530
0*
#535
b10101101 !
b10101101 E
0"
1#
1*
b101 /
b11 1
#540
b0 C
1B
b100 H
0A
b100000000011 G
0*
b11001 4
b10000000001100000 )
b10000000001100000 7
b10000000001100000 Q
b1100000 L
#545
b10101010 C
0B
b1 D
1A
b100 H
b10 F
b0 !
b0 E
1"
0#
1*
#550
0*
#555
b10101010 !
b10101010 E
0"
1#
1*
b110 /
b100 1
#560
b0 C
1B
b100 H
b0 D
0A
b100000000100 G
0*
b11010 4
b10000000010000000 )
b10000000010000000 7
b10000000010000000 Q
b10000000 L
#565
b10101011 C
0B
b10 D
1A
b100 H
b11 F
b0 !
b0 E
1"
0#
1*
#570
0*
#575
b10101011 !
b10101011 E
0"
1#
1*
b111 /
b101 1
#580
b0 C
1B
b100 H
b0 D
0A
b100000000101 G
0*
b11011 4
b10000000010100000 )
b10000000010100000 7
b10000000010100000 Q
b10100000 L
#585
b10000 C
0B
b11 D
1A
b100 H
b0 F
b0 !
b0 E
1"
0#
1*
#590
0*
#595
b10000 !
b10000 E
0"
1#
1*
b1000 /
b110 1
#600
b0 C
1B
b100 H
b0 D
0A
b100000000110 G
0*
b11100 4
b10000000011000000 )
b10000000011000000 7
b10000000011000000 Q
b11000000 L
#605
b10101101 C
0B
1A
b100 H
b1 F
b0 !
b0 E
1"
0#
1*
#610
0*
#615
b10101101 !
b10101101 E
0"
1#
1*
b1001 /
b111 1
#620
b0 C
1B
b100 H
0A
b100000000111 G
0*
b11101 4
b10000000011100000 )
b10000000011100000 7
b10000000011100000 Q
b11100000 L
#625
b10101010 C
0B
b1 D
1A
b100 H
b10 F
b0 !
b0 E
1"
0#
1*
#630
0*
#635
b10101010 !
b10101010 E
0"
1#
1*
b1010 /
b1000 1
#640
b0 C
1B
b100 H
b0 D
0A
b1000000000000 G
0*
b11110 4
b100000000000000000 )
b100000000000000000 7
b100000000000000000 Q
b0 1
b100000000 L
#645
b10101011 C
0B
b10 D
1A
b100 H
b11 F
b0 !
b0 E
1"
0#
1*
#650
0*
#655
b10101011 !
b10101011 E
0"
1#
1*
b1011 /
b1 1
#660
b0 C
1B
b100 H
b0 D
0A
b1000000000001 G
0*
b11111 4
b100000000000100000 )
b100000000000100000 7
b100000000000100000 Q
b100000 M
#665
b10000 C
0B
b11 D
1A
b100 H
b0 F
b0 !
b0 E
1"
0#
1*
#670
0*
#675
b10000 !
b10000 E
0"
1#
1*
b1100 /
b10 1
#680
b0 C
1B
b100 H
b0 D
0A
b1000000000010 G
0*
b100000 4
b100000000001000000 )
b100000000001000000 7
b100000000001000000 Q
b1000000 M
#685
b10101101 C
0B
1A
b100 H
b1 F
b0 !
b0 E
1"
0#
1*
#690
0*
#695
b10101101 !
b10101101 E
0"
1#
1*
b1101 /
b11 1
#700
b0 C
1B
b100 H
0A
b1000000000011 G
0*
b100001 4
b100000000001100000 )
b100000000001100000 7
b100000000001100000 Q
b1100000 M
#705
b10101010 C
0B
b1 D
1A
b100 H
b10 F
b0 !
b0 E
1"
0#
1*
#710
0*
#715
b10101010 !
b10101010 E
0"
1#
1*
b1110 /
b100 1
#720
b0 C
1B
b100 H
b0 D
0A
b1000000000100 G
0*
b100010 4
b100000000010000000 )
b100000000010000000 7
b100000000010000000 Q
b10000000 M
#725
b10101011 C
0B
b10 D
1A
b100 H
b11 F
b0 !
b0 E
1"
0#
1*
#730
0*
#735
b10101011 !
b10101011 E
0"
1#
1*
b1111 /
b101 1
#740
b0 C
1B
b100 H
b0 D
0A
b1000000000101 G
0*
b100011 4
b100000000010100000 )
b100000000010100000 7
b100000000010100000 Q
b10100000 M
#745
b10000 C
0B
b11 D
1A
b100 H
b0 F
b0 !
b0 E
1"
0#
1*
#750
0*
#755
b10000 !
b10000 E
0"
1#
1*
b10000 /
b110 1
#760
b0 C
1B
b100 H
b0 D
0A
b1000000000110 G
0*
b100100 4
b100000000011000000 )
b100000000011000000 7
b100000000011000000 Q
b11000000 M
#765
b10101101 C
0B
1A
b100 H
b1 F
b0 !
b0 E
1"
0#
1*
#770
0*
#775
b10101101 !
b10101101 E
0"
1#
1*
b10001 /
b111 1
#780
b0 C
1B
b100 H
0A
b1000000000111 G
0*
b100101 4
b100000000011100000 )
b100000000011100000 7
b100000000011100000 Q
b11100000 M
#785
b10101010 C
0B
b1 D
1A
b100 H
b10 F
b0 !
b0 E
1"
0#
1*
#790
0*
#795
b10101010 !
b10101010 E
0"
1#
1*
b10010 /
b1000 1
#800
b0 C
1B
b100 H
b0 D
0A
b1100000000000 G
0*
b100110 4
b110000000000000000 )
b110000000000000000 7
b110000000000000000 Q
b0 1
b100000000 M
#805
b10101011 C
0B
b10 D
1A
b100 H
b11 F
b0 !
b0 E
1"
0#
1*
#810
0*
#815
b10101011 !
b10101011 E
0"
1#
1*
b10011 /
b1 1
#820
bx C
b100 H
b10 D
1A
b1000 @
0*
b100111 4
b110000000000001000 )
b110000000000001000 7
b110000000000001000 Q
b1000 N
#825
bx !
bx E
1*
#830
0*
#835
1*
b1011 .
b1 0
#840
b100 H
b10 D
1A
b10000 @
0*
b101000 4
b110000000000010000 )
b110000000000010000 7
b110000000000010000 Q
b10000 N
#845
1*
#850
0*
#855
1*
b1100 .
b10 0
#860
b100 H
b10 D
1A
b11000 @
0*
b101001 4
b110000000000011000 )
b110000000000011000 7
b110000000000011000 Q
b11000 N
#865
1*
#870
0*
#875
1*
b1101 .
b11 0
#880
b0 C
1B
b100 H
b0 D
0A
b0 @
b1100000000001 G
0*
b101010 4
b110000000000100000 )
b110000000000100000 7
b110000000000100000 Q
b100000 N
#885
b10000 C
0B
b11 D
1A
b100 H
b0 F
b0 !
b0 E
1"
0#
1*
#890
0*
#895
b10000 !
b10000 E
0"
1#
1*
b10100 /
b10 1
#900
bx C
b100 H
b11 D
1A
b1000 @
0*
b101011 4
b110000000000101000 )
b110000000000101000 7
b110000000000101000 Q
b101000 N
#905
bx !
bx E
1*
#910
0*
#915
1*
b1110 .
b100 0
#920
b100 H
b11 D
1A
b10000 @
0*
b101100 4
b110000000000110000 )
b110000000000110000 7
b110000000000110000 Q
b110000 N
#925
1*
#930
0*
#935
1*
b1111 .
b101 0
#940
b100 H
b11 D
1A
b11000 @
0*
b101101 4
b110000000000111000 )
b110000000000111000 7
b110000000000111000 Q
b111000 N
#945
1*
#950
0*
#955
1*
b10000 .
b110 0
#960
b0 C
1B
b100 H
b0 D
0A
b0 @
b1100000000010 G
0*
b101110 4
b110000000001000000 )
b110000000001000000 7
b110000000001000000 Q
b1000000 N
#965
b10101101 C
0B
1A
b100 H
b1 F
b0 !
b0 E
1"
0#
1*
#970
0*
#975
b10101101 !
b10101101 E
0"
1#
1*
b10101 /
b11 1
#980
bx C
b100 H
1A
b1000 @
0*
b101111 4
b110000000001001000 )
b110000000001001000 7
b110000000001001000 Q
b1001000 N
#985
bx !
bx E
1*
#990
0*
#995
1*
b10001 .
b111 0
#1000
b100 H
1A
b10000 @
0*
b110000 4
b110000000001010000 )
b110000000001010000 7
b110000000001010000 Q
b1010000 N
#1005
1*
#1010
0*
#1015
1*
b10010 .
b1000 0
#1020
b100 H
1A
b11000 @
0*
b110001 4
b110000000001011000 )
b110000000001011000 7
b110000000001011000 Q
b1011000 N
#1025
1*
#1030
0*
#1035
1*
b10011 .
b1001 0
#1040
b0 C
1B
b100 H
0A
b0 @
b1100000000011 G
0*
b110010 4
b110000000001100000 )
b110000000001100000 7
b110000000001100000 Q
b1100000 N
#1045
b10101010 C
0B
b1 D
1A
b100 H
b10 F
b0 !
b0 E
1"
0#
1*
#1050
0*
#1055
b10101010 !
b10101010 E
0"
1#
1*
b10110 /
b100 1
#1060
bx C
b100 H
b1 D
1A
b1000 @
0*
b110011 4
b110000000001101000 )
b110000000001101000 7
b110000000001101000 Q
b1101000 N
#1065
bx !
bx E
1*
#1070
0*
#1075
1*
b10100 .
b1010 0
#1080
b100 H
b1 D
1A
b10000 @
0*
b110100 4
b110000000001110000 )
b110000000001110000 7
b110000000001110000 Q
b1110000 N
#1085
1*
#1090
0*
#1095
1*
b10101 .
b1011 0
#1100
b100 H
b1 D
1A
b11000 @
0*
b110101 4
b110000000001111000 )
b110000000001111000 7
b110000000001111000 Q
b1111000 N
#1105
1*
#1110
0*
#1115
1*
b10110 .
b1100 0
#1120
b0 C
1B
b100 H
b0 D
0A
b0 @
b1100000000100 G
0*
b110110 4
b110000000010000000 )
b110000000010000000 7
b110000000010000000 Q
b10000000 N
#1125
b10101011 C
0B
b10 D
1A
b100 H
b11 F
b0 !
b0 E
1"
0#
1*
#1130
0*
#1135
b10101011 !
b10101011 E
0"
1#
1*
b10111 /
b101 1
#1140
bx C
b100 H
b10 D
1A
b1000 @
0*
b110111 4
b110000000010001000 )
b110000000010001000 7
b110000000010001000 Q
b10001000 N
#1145
bx !
bx E
1*
#1150
0*
#1155
1*
b10111 .
b1101 0
#1160
b100 H
b10 D
1A
b10000 @
0*
b111000 4
b110000000010010000 )
b110000000010010000 7
b110000000010010000 Q
b10010000 N
#1165
1*
#1170
0*
#1175
1*
b11000 .
b1110 0
#1180
b100 H
b10 D
1A
b11000 @
0*
b111001 4
b110000000010011000 )
b110000000010011000 7
b110000000010011000 Q
b10011000 N
#1185
1*
#1190
0*
#1195
1*
b11001 .
b1111 0
#1200
b0 C
1B
b100 H
b0 D
0A
b0 @
b1100000000101 G
0*
b111010 4
b110000000010100000 )
b110000000010100000 7
b110000000010100000 Q
b10100000 N
#1205
b10000 C
0B
b11 D
1A
b100 H
b0 F
b0 !
b0 E
1"
0#
1*
#1210
0*
#1215
b10000 !
b10000 E
0"
1#
1*
b11000 /
b110 1
#1220
bx C
b100 H
b11 D
1A
b1000 @
0*
b111011 4
b110000000010101000 )
b110000000010101000 7
b110000000010101000 Q
b10101000 N
#1225
bx !
bx E
1*
#1230
0*
#1235
1*
b11010 .
b10000 0
#1240
b100 H
b11 D
1A
b10000 @
0*
b111100 4
b110000000010110000 )
b110000000010110000 7
b110000000010110000 Q
b10110000 N
#1245
1*
#1250
0*
#1255
1*
b11011 .
b10001 0
#1260
b100 H
b11 D
1A
b11000 @
0*
b111101 4
b110000000010111000 )
b110000000010111000 7
b110000000010111000 Q
b10111000 N
#1265
1*
#1270
0*
#1275
1*
b11100 .
b10010 0
#1280
b0 C
1B
b100 H
b0 D
0A
b0 @
b1100000000110 G
0*
b111110 4
b110000000011000000 )
b110000000011000000 7
b110000000011000000 Q
b11000000 N
#1285
b10101101 C
0B
1A
b100 H
b1 F
b0 !
b0 E
1"
0#
1*
#1290
0*
#1295
b10101101 !
b10101101 E
0"
1#
1*
b11001 /
b111 1
#1300
bx C
b100 H
1A
b1000 @
0*
b111111 4
b110000000011001000 )
b110000000011001000 7
b110000000011001000 Q
b11001000 N
#1305
bx !
bx E
1*
#1310
0*
#1315
1*
b11101 .
b10011 0
#1320
b100 H
1A
b10000 @
0*
b1000000 4
b110000000011010000 )
b110000000011010000 7
b110000000011010000 Q
b11010000 N
#1325
1*
#1330
0*
#1335
1*
b11110 .
b10100 0
#1340
b100 H
1A
b11000 @
0*
b1000001 4
b110000000011011000 )
b110000000011011000 7
b110000000011011000 Q
b11011000 N
#1345
1*
#1350
0*
#1355
1*
b11111 .
b10101 0
#1360
b0 C
1B
b100 H
0A
b0 @
b1100000000111 G
0*
b1000010 4
b110000000011100000 )
b110000000011100000 7
b110000000011100000 Q
b11100000 N
#1365
b10101010 C
0B
b1 D
1A
b100 H
b10 F
b0 !
b0 E
1"
0#
1*
#1370
0*
#1375
b10101010 !
b10101010 E
0"
1#
1*
b11010 /
b1000 1
#1380
bx C
b100 H
b1 D
1A
b1000 @
0*
b1000011 4
b110000000011101000 )
b110000000011101000 7
b110000000011101000 Q
b11101000 N
#1385
bx !
bx E
1*
#1390
0*
#1395
1*
b100000 .
b10110 0
#1400
b100 H
b1 D
1A
b10000 @
0*
b1000100 4
b110000000011110000 )
b110000000011110000 7
b110000000011110000 Q
b11110000 N
#1405
1*
#1410
0*
#1415
1*
b100001 .
b10111 0
#1420
b100 H
b1 D
1A
b11000 @
0*
b1000101 4
b110000000011111000 )
b110000000011111000 7
b110000000011111000 Q
b11111000 N
#1425
1*
#1430
0*
#1435
1*
b100010 .
b11000 0
#1440
b0 C
1B
b100 H
b0 D
0A
b0 @
b10000000000000 G
0*
b1000110 4
1-
b11101110 ,
b11101110 8
b1000000000000000000 )
b1000000000000000000 7
b11101110 R
b1000000000000000000 S
b0 1
b0 0
b100000000 N
#1445
0B
b10 D
1A
b100 H
b11 F
b0 !
b0 E
1"
0#
1*
#1450
0*
#1455
0"
1#
1*
b1000 6
b1 3
#1460
1B
b100 H
b0 D
0A
b10000000000001 G
0*
b1000111 4
b11101111 ,
b11101111 8
b1000000000000100000 )
b1000000000000100000 7
b11101111 R
b1000000000000100000 S
b100000 O
#1465
0B
b11 D
1A
b100 H
b0 F
1"
0#
1*
#1470
0*
#1475
0"
1#
1*
b1001 6
b10 3
#1480
1B
b100 H
b0 D
0A
b10000000000010 G
0*
b1001000 4
b11110000 ,
b11110000 8
b1000000000001000000 )
b1000000000001000000 7
b11110000 R
b1000000000001000000 S
b1000000 O
#1485
0B
1A
b100 H
b1 F
1"
0#
1*
#1490
0*
#1495
0"
1#
1*
b1010 6
b11 3
#1500
1B
b100 H
0A
b10000000000011 G
0*
b1001001 4
b11110001 ,
b11110001 8
b1000000000001100000 )
b1000000000001100000 7
b11110001 R
b1000000000001100000 S
b1100000 O
#1505
0B
b1 D
1A
b100 H
b10 F
1"
0#
1*
#1510
0*
#1515
0"
1#
1*
b1011 6
b100 3
#1520
1B
b100 H
b0 D
0A
b10000000000100 G
0*
b1001010 4
b11110010 ,
b11110010 8
b1000000000010000000 )
b1000000000010000000 7
b11110010 R
b1000000000010000000 S
b10000000 O
#1525
0B
b10 D
1A
b100 H
b11 F
1"
0#
1*
#1530
0*
#1535
0"
1#
1*
b1100 6
b101 3
#1540
1B
b100 H
b0 D
0A
b10000000000101 G
0*
b1001011 4
b11110011 ,
b11110011 8
b1000000000010100000 )
b1000000000010100000 7
b11110011 R
b1000000000010100000 S
b10100000 O
#1545
0B
b11 D
1A
b100 H
b0 F
1"
0#
1*
#1550
0*
#1555
0"
1#
1*
b1101 6
b110 3
#1560
1B
b100 H
b0 D
0A
b10000000000110 G
0*
b1001100 4
b11110100 ,
b11110100 8
b1000000000011000000 )
b1000000000011000000 7
b11110100 R
b1000000000011000000 S
b11000000 O
#1565
0B
1A
b100 H
b1 F
1"
0#
1*
#1570
0*
#1575
0"
1#
1*
b1110 6
b111 3
#1580
1B
b100 H
0A
b10000000000111 G
0*
b1001101 4
b11110101 ,
b11110101 8
b1000000000011100000 )
b1000000000011100000 7
b11110101 R
b1000000000011100000 S
b11100000 O
#1585
0B
b1 D
1A
b100 H
b10 F
1"
0#
1*
#1590
0*
#1595
0"
1#
1*
b1111 6
b1000 3
#1600
1B
b100 H
b0 D
0A
b10000000000000 G
0*
b1001110 4
0-
b1000000000000000000 )
b1000000000000000000 7
b1000000000000000000 Q
b0 3
b100000000 O
#1605
b11110010 C
0B
b10 D
1A
b100 H
b11 F
1"
0#
1*
#1610
0*
#1615
b11110010 !
b11110010 E
0"
1#
1*
b11011 /
b1 1
#1620
b0 C
1B
b100 H
b0 D
0A
b10000000000001 G
0*
b1001111 4
b1000000000000100000 )
b1000000000000100000 7
b1000000000000100000 Q
b100000 P
#1625
b11110011 C
0B
b11 D
1A
b100 H
b0 F
b0 !
b0 E
1"
0#
1*
#1630
0*
#1635
b11110011 !
b11110011 E
0"
1#
1*
b11100 /
b10 1
#1640
b0 C
1B
b100 H
b0 D
0A
b10000000000010 G
0*
b1010000 4
b1000000000001000000 )
b1000000000001000000 7
b1000000000001000000 Q
b1000000 P
#1645
b11110100 C
0B
1A
b100 H
b1 F
b0 !
b0 E
1"
0#
1*
#1650
0*
#1655
b11110100 !
b11110100 E
0"
1#
1*
b11101 /
b11 1
#1660
b0 C
1B
b100 H
0A
b10000000000011 G
0*
b1010001 4
b1000000000001100000 )
b1000000000001100000 7
b1000000000001100000 Q
b1100000 P
#1665
b11110101 C
0B
b1 D
1A
b100 H
b10 F
b0 !
b0 E
1"
0#
1*
#1670
0*
#1675
b11110101 !
b11110101 E
0"
1#
1*
b11110 /
b100 1
#1680
b0 C
1B
b100 H
b0 D
0A
b10000000000100 G
0*
b1010010 4
b1000000000010000000 )
b1000000000010000000 7
b1000000000010000000 Q
b10000000 P
#1685
b11110010 C
0B
b10 D
1A
b100 H
b11 F
b0 !
b0 E
1"
0#
1*
#1690
0*
#1695
b11110010 !
b11110010 E
0"
1#
1*
b11111 /
b101 1
#1700
b0 C
1B
b100 H
b0 D
0A
b10000000000101 G
0*
b1010011 4
b1000000000010100000 )
b1000000000010100000 7
b1000000000010100000 Q
b10100000 P
#1705
b11110011 C
0B
b11 D
1A
b100 H
b0 F
b0 !
b0 E
1"
0#
1*
#1710
0*
#1715
b11110011 !
b11110011 E
0"
1#
1*
b100000 /
b110 1
#1720
b0 C
1B
b100 H
b0 D
0A
b10000000000110 G
0*
b1010100 4
b1000000000011000000 )
b1000000000011000000 7
b1000000000011000000 Q
b11000000 P
#1725
b11110100 C
0B
1A
b100 H
b1 F
b0 !
b0 E
1"
0#
1*
#1730
0*
#1735
b11110100 !
b11110100 E
0"
1#
1*
b100001 /
b111 1
#1740
b0 C
1B
b100 H
0A
b10000000000111 G
0*
b1010101 4
b1000000000011100000 )
b1000000000011100000 7
b1000000000011100000 Q
b11100000 P
#1745
b11110101 C
0B
b1 D
1A
b100 H
b10 F
b0 !
b0 E
1"
0#
1*
#1750
0*
#1755
b11110101 !
b11110101 E
0"
1#
1*
b100010 /
b1000 1
#1760
b0 C
1B
b100 H
b0 D
0A
b10100000000000 G
0*
b1010110 4
1-
b10100000 ,
b10100000 8
b1010000000000000000 )
b1010000000000000000 7
b10100000 R
b1010000000000000000 S
b0 1
b100000000 P
#1765
0B
b10 D
1A
b100 H
b11 F
b0 !
b0 E
1"
0#
1*
#1770
0*
#1775
0"
1#
1*
b10000 6
b1 3
#1780
b100 H
b10 D
1A
b100 @
0*
b1010111 4
b10100100 ,
b10100100 8
b1010000000000000100 )
b1010000000000000100 7
b10100100 R
b1010000000000000100 S
#1785
b100 H
b10 D
1A
1*
#1790
0*
#1795
1*
b11 5
b1 2
#1800
b100 H
b10 D
1A
b1000 @
0*
b1011000 4
b10101000 ,
b10101000 8
b1010000000000001000 )
b1010000000000001000 7
b10101000 R
b1010000000000001000 S
#1805
b100 H
b10 D
1A
1*
#1810
0*
#1815
1*
b100 5
b10 2
#1820
b10100100 C
b100 H
b10 D
1A
b100 @
0*
b1011001 4
0-
b1010000000000000100 )
b1010000000000000100 7
b1010000000000000100 Q
#1825
b10100100 !
b10100100 E
1*
#1830
0*
#1835
1*
b100011 .
b1 0
#1840
b10101000 C
b100 H
b10 D
1A
b1000 @
0*
b1011010 4
b1010000000000001000 )
b1010000000000001000 7
b1010000000000001000 Q
#1845
b10101000 !
b10101000 E
1*
#1850
0*
#1855
1*
b100100 .
b10 0
#1860
b10100000 C
b100 H
b10 D
1A
b0 @
0*
b1011011 4
b1010000000000000000 )
b1010000000000000000 7
b1010000000000000000 Q
#1865
b10100000 !
b10100000 E
1*
#1870
0*
#1875
1*
b100101 .
b11 0
#1880
b0 C
1B
b100 H
b0 D
0A
b11000010000000 G
0*
b1011100 4
1-
b10110001 ,
b10110001 8
b1100001000000000000 )
b1100001000000000000 7
b10110001 R
b1100001000000000000 S
b0 3
b0 2
b0 0
