iceBlinkPico-main/projects/cachef/fully_associative_cache.vcd
$date
	Wed May  7 14:33:22 2025
$end
$version
	Icarus Verilog
$end
$timescale
	1s
$end
$scope module fully_associative_cache_tb $end
$var wire 8 ! rd_data [7:0] $end
$var wire 1 " miss $end
$var wire 1 # hit $end
$var parameter 32 $ ASSOC $end
$var parameter 32 % BLOCK_SIZE $end
$var parameter 32 & CACHE_SIZE $end
$var parameter 32 ' PERIOD $end
$var parameter 33 ( TAG_WIDTH $end
$var reg 32 ) addr [31:0] $end
$var reg 1 * clk $end
$var reg 1 + reset $end
$var reg 8 , wr_data [7:0] $end
$var reg 1 - wr_en $end
$var integer 32 . read_hits [31:0] $end
$var integer 32 / read_misses [31:0] $end
$var integer 32 0 test_read_hits [31:0] $end
$var integer 32 1 test_read_misses [31:0] $end
$var integer 32 2 test_write_hits [31:0] $end
$var integer 32 3 test_write_misses [31:0] $end
$var integer 32 4 total_accesses [31:0] $end
$var integer 32 5 write_hits [31:0] $end
$var integer 32 6 write_misses [31:0] $end
$scope module dut $end
$var wire 32 7 addr [31:0] $end
$var wire 1 * clk $end
$var wire 1 + reset $end
$var wire 8 8 wr_data [7:0] $end
$var wire 1 - wr_en $end
$var parameter 32 9 ASSOC $end
$var parameter 32 : BLOCK_OFFSET_WIDTH $end
$var parameter 32 ; BLOCK_SIZE $end
$var parameter 32 < CACHE_SIZE $end
$var parameter 32 = INDEX_WIDTH $end
$var parameter 32 > NUM_SETS $end
$var parameter 33 ? TAG_WIDTH $end
$var reg 5 @ block_offset [4:0] $end
$var reg 1 A current_hit $end
$var reg 1 B current_miss $end
$var reg 8 C current_rd_data [7:0] $end
$var reg 1 # hit $end
$var reg 4 D hit_way [3:0] $end
$var reg 1 " miss $end
$var reg 8 E rd_data [7:0] $end
$var reg 4 F replace_ptr [3:0] $end
$var reg 27 G tag [26:0] $end
$scope begin $ivl_for_loop0 $end
$var integer 32 H i [31:0] $end
$upscope $end
$scope begin $ivl_for_loop1 $end
$var integer 32 I i [31:0] $end
$upscope $end
$upscope $end
$scope begin $ivl_for_loop2 $end
$var integer 32 J i [31:0] $end
$upscope $end
$scope begin $ivl_for_loop3 $end
$var integer 32 K i [31:0] $end
$upscope $end
$scope begin $ivl_for_loop4 $end
$var integer 32 L i [31:0] $end
$upscope $end
$scope begin $ivl_for_loop5 $end
$var integer 32 M i [31:0] $end
$upscope $end
$scope begin $ivl_for_loop6 $end
$var integer 32 N i [31:0] $end
$upscope $end
$scope begin $ivl_for_loop7 $end
$var integer 32 O i [31:0] $end
$upscope $end
$scope begin $ivl_for_loop8 $end
$var integer 32 P i [31:0] $end
$upscope $end
$scope task display_test_results $end
$upscope $end
$scope task read_access $end
$var reg 32 Q read_addr [31:0] $end
$upscope $end
$scope task write_access $end
$var reg 8 R data_to_write [7:0] $end
$var reg 32 S write_addr [31:0] $end
$upscope $end
$upscope $end
$enddefinitions $end
$comment Show the parameter values. $end
$dumpall
b11011 ?
b1 >
b0 =
b1000000000 <
b100000 ;
b101 :
b10000 9
b11011 (
b1010 '
b1000000000 &
b100000 %
b10000 $
$end
#0
$dumpvars
bx S
bx R
bx Q
b0 P
b0 O
b0 N
b0 M
b0 L
b0 K
b0 J
b10000 I
b10000 H
b0 G
b0 F
b0 E
b0 D
b0 C
1B
0A
b0 @
b0 8
b0 7
b0 6
b0 5
b0 4
bx 3
bx 2
bx 1
bx 0
b0 /
b0 .
x-
b0 ,
1+
0*
b0 )
0#
0"
b0 !
$end
#5
b10000 I
1*
#10
0*
#15
b10000 I
1*
#20
0*
#25
b10000 I
1*
#30
0*
#35
b10000 I
1*
#40
0*
#45
b10000 I
1*
#50
0*
0+
#55
0B
1A
b10000 H
b1 F
1"
1*
#60
1B
b10000 H
0A
b10000000 G
0*
b1 4
1-
b10101010 ,
b10101010 8
b1000000000000 )
b1000000000000 7
b10101010 R
b1000000000000 S
b0 3
b0 2
b0 1
b0 0
#65
0B
b1 D
1A
b10000 H
b10 F
1*
#70
0*
#75
0"
1#
1*
b1 6
b1 3
#80
1B
b10000 H
b0 D
0A
b10001010 G
0*
b10 4
b10101011 ,
b10101011 8
b1000101000000 )
b1000101000000 7
b10101011 R
b1000101000000 S
b1 J
#85
0B
b10 D
1A
b10000 H
b11 F
1"
0#
1*
#90
0*
#95
0"
1#
1*
b10 6
b10 3
#100
1B
b10000 H
b0 D
0A
b10010100 G
0*
b11 4
b10101100 ,
b10101100 8
b1001010000000 )
b1001010000000 7
b10101100 R
b1001010000000 S
b10 J
#105
0B
b11 D
1A
b10000 H
b100 F
1"
0#
1*
#110
0*
#115
0"
1#
1*
b11 6
b11 3
#120
1B
b10000 H
b0 D
0A
b10011110 G
0*
b100 4
b10101101 ,
b10101101 8
b1001111000000 )
b1001111000000 7
b10101101 R
b1001111000000 S
b11 J
#125
0B
b100 D
1A
b10000 H
b101 F
1"
0#
1*
#130
0*
#135
0"
1#
1*
b100 6
b100 3
#140
1B
b10000 H
b0 D
0A
b10101000 G
0*
b101 4
b10101110 ,
b10101110 8
b1010100000000 )
b1010100000000 7
b10101110 R
b1010100000000 S
b100 J
#145
0B
b101 D
1A
b10000 H
b110 F
1"
0#
1*
#150
0*
#155
0"
1#
1*
b101 6
b101 3
#160
1B
b10000 H
b0 D
0A
b10110010 G
0*
b110 4
b10101111 ,
b10101111 8
b1011001000000 )
b1011001000000 7
b10101111 R
b1011001000000 S
b101 J
#165
0B
b110 D
1A
b10000 H
b111 F
1"
0#
1*
#170
0*
#175
0"
1#
1*
b110 6
b110 3
#180
1B
b10000 H
b0 D
0A
b10111100 G
0*
b111 4
b10110000 ,
b10110000 8
b1011110000000 )
b1011110000000 7
b10110000 R
b1011110000000 S
b110 J
#185
0B
b111 D
1A
b10000 H
b1000 F
1"
0#
1*
#190
0*
#195
0"
1#
1*
b111 6
b111 3
#200
1B
b10000 H
b0 D
0A
b11000110 G
0*
b1000 4
b10110001 ,
b10110001 8
b1100011000000 )
b1100011000000 7
b10110001 R
b1100011000000 S
b111 J
#205
0B
b1000 D
1A
b10000 H
b1001 F
1"
0#
1*
#210
0*
#215
0"
1#
1*
b1000 6
b1000 3
#220
1B
b10000 H
b0 D
0A
b11010000 G
0*
b1001 4
b10110010 ,
b10110010 8
b1101000000000 )
b1101000000000 7
b10110010 R
b1101000000000 S
b1000 J
#225
0B
b1001 D
1A
b10000 H
b1010 F
1"
0#
1*
#230
0*
#235
0"
1#
1*
b1001 6
b1001 3
#240
1B
b10000 H
b0 D
0A
b11011010 G
0*
b1010 4
b10110011 ,
b10110011 8
b1101101000000 )
b1101101000000 7
b10110011 R
b1101101000000 S
b1001 J
#245
0B
b1010 D
1A
b10000 H
b1011 F
1"
0#
1*
#250
0*
#255
0"
1#
1*
b1010 6
b1010 3
#260
1B
b10000 H
b0 D
0A
b11100100 G
0*
b1011 4
b10110100 ,
b10110100 8
b1110010000000 )
b1110010000000 7
b10110100 R
b1110010000000 S
b1010 J
#265
0B
b1011 D
1A
b10000 H
b1100 F
1"
0#
1*
#270
0*
#275
0"
1#
1*
b1011 6
b1011 3
#280
1B
b10000 H
b0 D
0A
b11101110 G
0*
b1100 4
b10110101 ,
b10110101 8
b1110111000000 )
b1110111000000 7
b10110101 R
b1110111000000 S
b1011 J
#285
0B
b1100 D
1A
b10000 H
b1101 F
1"
0#
1*
#290
0*
#295
0"
1#
1*
b1100 6
b1100 3
#300
1B
b10000 H
b0 D
0A
b11111000 G
0*
b1101 4
b10110110 ,
b10110110 8
b1111100000000 )
b1111100000000 7
b10110110 R
b1111100000000 S
b1100 J
#305
0B
b1101 D
1A
b10000 H
b1110 F
1"
0#
1*
#310
0*
#315
0"
1#
1*
b1101 6
b1101 3
#320
1B
b10000 H
b0 D
0A
b100000010 G
0*
b1110 4
b10110111 ,
b10110111 8
b10000001000000 )
b10000001000000 7
b10110111 R
b10000001000000 S
b1101 J
#325
0B
b1110 D
1A
b10000 H
b1111 F
1"
0#
1*
#330
0*
#335
0"
1#
1*
b1110 6
b1110 3
#340
1B
b10000 H
b0 D
0A
b100001100 G
0*
b1111 4
b10111000 ,
b10111000 8
b10000110000000 )
b10000110000000 7
b10111000 R
b10000110000000 S
b1110 J
#345
0B
b1111 D
1A
b10000 H
b0 F
1"
0#
1*
#350
0*
#355
0"
1#
1*
b1111 6
b1111 3
#360
1B
b10000 H
b0 D
0A
b100010110 G
0*
b10000 4
b10111001 ,
b10111001 8
b10001011000000 )
b10001011000000 7
b10111001 R
b10001011000000 S
b1111 J
#365
0B
1A
b10000 H
b1 F
1"
0#
1*
#370
0*
#375
0"
1#
1*
b10000 6
b10000 3
#380
b10101010 C
b1 D
b10000 H
1A
b10000000 G
0*
b10001 4
0-
b1000000000000 )
b1000000000000 7
b1000000000000 Q
b0 3
b10000 J
#385
b10101010 !
b10101010 E
1*
#390
0*
#395
1*
b1 .
b1 0
#400
b10101011 C
b10000 H
b10 D
1A
b10001010 G
0*
b10010 4
b1000101000000 )
b1000101000000 7
b1000101000000 Q
b1 K
#405
b10101011 !
b10101011 E
1*
#410
0*
#415
1*
b10 .
b10 0
#420
b10101100 C
b10000 H
b11 D
1A
b10010100 G
0*
b10011 4
b1001010000000 )
b1001010000000 7
b1001010000000 Q
b10 K
#425
b10101100 !
b10101100 E
1*
#430
0*
#435
1*
b11 .
b11 0
#440
b10101101 C
b10000 H
b100 D
1A
b10011110 G
0*
b10100 4
b1001111000000 )
b1001111000000 7
b1001111000000 Q
b11 K
#445
b10101101 !
b10101101 E
1*
#450
0*
#455
1*
b100 .
b100 0
#460
b10101110 C
b10000 H
b101 D
1A
b10101000 G
0*
b10101 4
b1010100000000 )
b1010100000000 7
b1010100000000 Q
b100 K
#465
b10101110 !
b10101110 E
1*
#470
0*
#475
1*
b101 .
b101 0
#480
b10101111 C
b10000 H
b110 D
1A
b10110010 G
0*
b10110 4
b1011001000000 )
b1011001000000 7
b1011001000000 Q
b101 K
#485
b10101111 !
b10101111 E
1*
#490
0*
#495
1*
b110 .
b110 0
#500
b10110000 C
b10000 H
b111 D
1A
b10111100 G
0*
b10111 4
b1011110000000 )
b1011110000000 7
b1011110000000 Q
b110 K
#505
b10110000 !
b10110000 E
1*
#510
0*
#515
1*
b111 .
b111 0
#520
b10110001 C
b10000 H
b1000 D
1A
b11000110 G
0*
b11000 4
b1100011000000 )
b1100011000000 7
b1100011000000 Q
b111 K
#525
b10110001 !
b10110001 E
1*
#530
0*
#535
1*
b1000 .
b1000 0
#540
b10110010 C
b10000 H
b1001 D
1A
b11010000 G
0*
b11001 4
b1101000000000 )
b1101000000000 7
b1101000000000 Q
b1000 K
#545
b10110010 !
b10110010 E
1*
#550
0*
#555
1*
b1001 .
b1001 0
#560
b10110011 C
b10000 H
b1010 D
1A
b11011010 G
0*
b11010 4
b1101101000000 )
b1101101000000 7
b1101101000000 Q
b1001 K
#565
b10110011 !
b10110011 E
1*
#570
0*
#575
1*
b1010 .
b1010 0
#580
b10110100 C
b10000 H
b1011 D
1A
b11100100 G
0*
b11011 4
b1110010000000 )
b1110010000000 7
b1110010000000 Q
b1010 K
#585
b10110100 !
b10110100 E
1*
#590
0*
#595
1*
b1011 .
b1011 0
#600
b10110101 C
b10000 H
b1100 D
1A
b11101110 G
0*
b11100 4
b1110111000000 )
b1110111000000 7
b1110111000000 Q
b1011 K
#605
b10110101 !
b10110101 E
1*
#610
0*
#615
1*
b1100 .
b1100 0
#620
b10110110 C
b10000 H
b1101 D
1A
b11111000 G
0*
b11101 4
b1111100000000 )
b1111100000000 7
b1111100000000 Q
b1100 K
#625
b10110110 !
b10110110 E
1*
#630
0*
#635
1*
b1101 .
b1101 0
#640
b10110111 C
b10000 H
b1110 D
1A
b100000010 G
0*
b11110 4
b10000001000000 )
b10000001000000 7
b10000001000000 Q
b1101 K
#645
b10110111 !
b10110111 E
1*
#650
0*
#655
1*
b1110 .
b1110 0
#660
b10111000 C
b10000 H
b1111 D
1A
b100001100 G
0*
b11111 4
b10000110000000 )
b10000110000000 7
b10000110000000 Q
b1110 K
#665
b10111000 !
b10111000 E
1*
#670
0*
#675
1*
b1111 .
b1111 0
#680
b10111001 C
b10000 H
b0 D
1A
b100010110 G
0*
b100000 4
b10001011000000 )
b10001011000000 7
b10001011000000 Q
b1111 K
#685
b10111001 !
b10111001 E
1*
#690
0*
#695
1*
b10000 .
b10000 0
#700
b0 C
1B
b10000 H
0A
b11111 @
b11111111111 G
0*
b100001 4
1-
b11111111 ,
b11111111 8
b1111111111111111 )
b1111111111111111 7
b11111111 R
b1111111111111111 S
b0 0
b10000 K
#705
0B
b1 D
1A
b10000 H
b10 F
b0 !
b0 E
1"
0#
1*
#710
0*
#715
0"
1#
1*
b10001 6
b1 3
#720
1B
b10000 H
b0 D
0A
b0 @
b10000000 G
0*
b100010 4
0-
b1000000000000 )
b1000000000000 7
b1000000000000 Q
b0 3
#725
b10101011 C
0B
b10 D
1A
b10000 H
b11 F
1"
0#
1*
#730
0*
#735
b10101011 !
b10101011 E
0"
1#
1*
b1 /
b1 1
#740
b11111111 C
b10000 H
b1 D
1A
b11111 @
b11111111111 G
0*
b100011 4
b1111111111111111 )
b1111111111111111 7
b1111111111111111 Q
b0 1
#745
b11111111 !
b11111111 E
1*
#750
0*
#755
1*
b10001 .
b1 0
#760
b0 C
1B
b10000 H
b0 D
0A
b0 @
b100000000 G
0*
b100100 4
1-
b10000 ,
b10000 8
b10000000000000 )
b10000000000000 7
b10000 R
b10000000000000 S
b0 0
#765
0B
b11 D
1A
b10000 H
b100 F
b0 !
b0 E
1"
0#
1*
#770
0*
#775
0"
1#
1*
b10010 6
b1 3
#780
b10000 H
b11 D
1A
b1 @
0*
b100101 4
b10001 ,
b10001 8
b10000000000001 )
b10000000000001 7
b10001 R
b10000000000001 S
#785
b10000 H
b11 D
1A
1*
#790
0*
#795
1*
b1 5
b1 2
#800
b10000 H
b11 D
1A
b11111 @
0*
b100110 4
b11111 ,
b11111 8
b10000000011111 )
b10000000011111 7
b11111 R
b10000000011111 S
#805
b10000 H
b11 D
1A
1*
#810
0*
#815
1*
b10 5
b10 2
#820
b10000 C
b10000 H
b11 D
1A
b0 @
0*
b100111 4
0-
b10000000000000 )
b10000000000000 7
b10000000000000 Q
#825
b10000 !
b10000 E
1*
#830
0*
#835
1*
b10010 .
b1 0
#840
b10001 C
b10000 H
b11 D
1A
b1 @
0*
b101000 4
b10000000000001 )
b10000000000001 7
b10000000000001 Q
#845
b10001 !
b10001 E
1*
#850
0*
#855
1*
b10011 .
b10 0
#860
b11111 C
b10000 H
b11 D
1A
b11111 @
0*
b101001 4
b10000000011111 )
b10000000011111 7
b10000000011111 Q
#865
b11111 !
b11111 E
1*
#870
0*
#875
1*
b10100 .
b11 0
#880
b0 C
1B
b10000 H
b0 D
0A
b10011 @
b110011001 G
0*
b101010 4
b11001100110011 )
b11001100110011 7
b11001100110011 Q
b0 3
b0 2
b0 0
#885
bx C
0B
b100 D
1A
b10000 H
b101 F
b0 !
b0 E
1"
0#
1*
#890
0*
#895
bx !
bx E
0"
1#
1*
b10 /
b1 1
#900
b0 C
1B
b10000 H
b0 D
0A
b100 @
b1000100010 G
0*
b101011 4
1-
b11001100 ,
b11001100 8
b100010001000100 )
b100010001000100 7
b11001100 R
b100010001000100 S
#905
0B
b101 D
1A
b10000 H
b110 F
b0 !
b0 E
1"
0#
1*
#910
0*
#915
0"
1#
1*
b10011 6
b1 3
#920
bx C
b10000 H
b100 D
1A
b10011 @
b110011001 G
0*
b101100 4
0-
b11001100110011 )
b11001100110011 7
#925
bx !
bx E
1*
#930
0*
#935
1*
b10101 .
b1 0
#940
b11001100 C
b10000 H
b101 D
1A
b100 @
b1000100010 G
0*
b101101 4
b100010001000100 )
b100010001000100 7
b100010001000100 Q
#945
b11001100 !
b11001100 E
1*
#950
0*
#955
1*
b10110 .
b10 0
#960
b0 C
1B
b10000 H
b0 D
0A
b0 @
b100000000000 G
0*
b101110 4
b10000000000000000 )
b10000000000000000 7
b10000000000000000 Q
b0 3
b0 1
b0 0
#965
b10101111 C
0B
b110 D
1A
b10000 H
b111 F
b0 !
b0 E
1"
0#
1*
#970
0*
#975
b10101111 !
b10101111 E
0"
1#
1*
b11 /
b1 1
#980
b0 C
1B
b10000 H
b0 D
0A
b100000000001 G
0*
b101111 4
b10000000000100000 )
b10000000000100000 7
b10000000000100000 Q
b100000 L
#985
b10110000 C
0B
b111 D
1A
b10000 H
b1000 F
b0 !
b0 E
1"
0#
1*
#990
0*
#995
b10110000 !
b10110000 E
0"
1#
1*
b100 /
b10 1
#1000
b0 C
1B
b10000 H
b0 D
0A
b100000000010 G
0*
b110000 4
b10000000001000000 )
b10000000001000000 7
b10000000001000000 Q
b1000000 L
#1005
b10110001 C
0B
b1000 D
1A
b10000 H
b1001 F
b0 !
b0 E
1"
0#
1*
#1010
0*
#1015
b10110001 !
b10110001 E
0"
1#
1*
b101 /
b11 1
#1020
b0 C
1B
b10000 H
b0 D
0A
b100000000011 G
0*
b110001 4
b10000000001100000 )
b10000000001100000 7
b10000000001100000 Q
b1100000 L
#1025
b10110010 C
0B
b1001 D
1A
b10000 H
b1010 F
b0 !
b0 E
1"
0#
1*
#1030
0*
#1035
b10110010 !
b10110010 E
0"
1#
1*
b110 /
b100 1
#1040
b0 C
1B
b10000 H
b0 D
0A
b100000000100 G
0*
b110010 4
b10000000010000000 )
b10000000010000000 7
b10000000010000000 Q
b10000000 L
#1045
b10110011 C
0B
b1010 D
1A
b10000 H
b1011 F
b0 !
b0 E
1"
0#
1*
#1050
0*
#1055
b10110011 !
b10110011 E
0"
1#
1*
b111 /
b101 1
#1060
b0 C
1B
b10000 H
b0 D
0A
b100000000101 G
0*
b110011 4
b10000000010100000 )
b10000000010100000 7
b10000000010100000 Q
b10100000 L
#1065
b10110100 C
0B
b1011 D
1A
b10000 H
b1100 F
b0 !
b0 E
1"
0#
1*
#1070
0*
#1075
b10110100 !
b10110100 E
0"
1#
1*
b1000 /
b110 1
#1080
b0 C
1B
b10000 H
b0 D
0A
b100000000110 G
0*
b110100 4
b10000000011000000 )
b10000000011000000 7
b10000000011000000 Q
b11000000 L
#1085
b10110101 C
0B
b1100 D
1A
b10000 H
b1101 F
b0 !
b0 E
1"
0#
1*
#1090
0*
#1095
b10110101 !
b10110101 E
0"
1#
1*
b1001 /
b111 1
#1100
b0 C
1B
b10000 H
b0 D
0A
b100000000111 G
0*
b110101 4
b10000000011100000 )
b10000000011100000 7
b10000000011100000 Q
b11100000 L
#1105
b10110110 C
0B
b1101 D
1A
b10000 H
b1110 F
b0 !
b0 E
1"
0#
1*
#1110
0*
#1115
b10110110 !
b10110110 E
0"
1#
1*
b1010 /
b1000 1
#1120
b0 C
1B
b10000 H
b0 D
0A
b100000001000 G
0*
b110110 4
b10000000100000000 )
b10000000100000000 7
b10000000100000000 Q
b100000000 L
#1125
b10110111 C
0B
b1110 D
1A
b10000 H
b1111 F
b0 !
b0 E
1"
0#
1*
#1130
0*
#1135
b10110111 !
b10110111 E
0"
1#
1*
b1011 /
b1001 1
#1140
b0 C
1B
b10000 H
b0 D
0A
b100000001001 G
0*
b110111 4
b10000000100100000 )
b10000000100100000 7
b10000000100100000 Q
b100100000 L
#1145
b10111000 C
0B
b1111 D
1A
b10000 H
b0 F
b0 !
b0 E
1"
0#
1*
#1150
0*
#1155
b10111000 !
b10111000 E
0"
1#
1*
b1100 /
b1010 1
#1160
b0 C
1B
b10000 H
b0 D
0A
b100000001010 G
0*
b111000 4
b10000000101000000 )
b10000000101000000 7
b10000000101000000 Q
b101000000 L
#1165
b10111001 C
0B
1A
b10000 H
b1 F
b0 !
b0 E
1"
0#
1*
#1170
0*
#1175
b10111001 !
b10111001 E
0"
1#
1*
b1101 /
b1011 1
#1180
b0 C
1B
b10000 H
0A
b100000001011 G
0*
b111001 4
b10000000101100000 )
b10000000101100000 7
b10000000101100000 Q
b101100000 L
#1185
b10101010 C
0B
b1 D
1A
b10000 H
b10 F
b0 !
b0 E
1"
0#
1*
#1190
0*
#1195
b10101010 !
b10101010 E
0"
1#
1*
b1110 /
b1100 1
#1200
b0 C
1B
b10000 H
b0 D
0A
b100000001100 G
0*
b111010 4
b10000000110000000 )
b10000000110000000 7
b10000000110000000 Q
b110000000 L
#1205
b10101011 C
0B
b10 D
1A
b10000 H
b11 F
b0 !
b0 E
1"
0#
1*
#1210
0*
#1215
b10101011 !
b10101011 E
0"
1#
1*
b1111 /
b1101 1
#1220
b0 C
1B
b10000 H
b0 D
0A
b100000001101 G
0*
b111011 4
b10000000110100000 )
b10000000110100000 7
b10000000110100000 Q
b110100000 L
#1225
b10000 C
0B
b11 D
1A
b10000 H
b100 F
b0 !
b0 E
1"
0#
1*
#1230
0*
#1235
b10000 !
b10000 E
0"
1#
1*
b10000 /
b1110 1
#1240
b0 C
1B
b10000 H
b0 D
0A
b100000001110 G
0*
b111100 4
b10000000111000000 )
b10000000111000000 7
b10000000111000000 Q
b111000000 L
#1245
b10101101 C
0B
b100 D
1A
b10000 H
b101 F
b0 !
b0 E
1"
0#
1*
#1250
0*
#1255
b10101101 !
b10101101 E
0"
1#
1*
b10001 /
b1111 1
#1260
b0 C
1B
b10000 H
b0 D
0A
b100000001111 G
0*
b111101 4
b10000000111100000 )
b10000000111100000 7
b10000000111100000 Q
b111100000 L
#1265
b10101110 C
0B
b101 D
1A
b10000 H
b110 F
b0 !
b0 E
1"
0#
1*
#1270
0*
#1275
b10101110 !
b10101110 E
0"
1#
1*
b10010 /
b10000 1
#1280
b0 C
1B
b10000 H
b0 D
0A
b100000010000 G
0*
b111110 4
b10000001000000000 )
b10000001000000000 7
b10000001000000000 Q
b1000000000 L
#1285
b10101111 C
0B
b110 D
1A
b10000 H
b111 F
b0 !
b0 E
1"
0#
1*
#1290
0*
#1295
b10101111 !
b10101111 E
0"
1#
1*
b10011 /
b10001 1
#1300
b0 C
1B
b10000 H
b0 D
0A
b100000010001 G
0*
b111111 4
b10000001000100000 )
b10000001000100000 7
b10000001000100000 Q
b1000100000 L
#1305
b10110000 C
0B
b111 D
1A
b10000 H
b1000 F
b0 !
b0 E
1"
0#
1*
#1310
0*
#1315
b10110000 !
b10110000 E
0"
1#
1*
b10100 /
b10010 1
#1320
b0 C
1B
b10000 H
b0 D
0A
b100000010010 G
0*
b1000000 4
b10000001001000000 )
b10000001001000000 7
b10000001001000000 Q
b1001000000 L
#1325
b10110001 C
0B
b1000 D
1A
b10000 H
b1001 F
b0 !
b0 E
1"
0#
1*
#1330
0*
#1335
b10110001 !
b10110001 E
0"
1#
1*
b10101 /
b10011 1
#1340
b0 C
1B
b10000 H
b0 D
0A
b100000010011 G
0*
b1000001 4
b10000001001100000 )
b10000001001100000 7
b10000001001100000 Q
b1001100000 L
#1345
b10110010 C
0B
b1001 D
1A
b10000 H
b1010 F
b0 !
b0 E
1"
0#
1*
#1350
0*
#1355
b10110010 !
b10110010 E
0"
1#
1*
b10110 /
b10100 1
#1360
b0 C
1B
b10000 H
b0 D
0A
b100000010100 G
0*
b1000010 4
b10000001010000000 )
b10000001010000000 7
b10000001010000000 Q
b1010000000 L
#1365
b10110011 C
0B
b1010 D
1A
b10000 H
b1011 F
b0 !
b0 E
1"
0#
1*
#1370
0*
#1375
b10110011 !
b10110011 E
0"
1#
1*
b10111 /
b10101 1
#1380
b0 C
1B
b10000 H
b0 D
0A
b100000010101 G
0*
b1000011 4
b10000001010100000 )
b10000001010100000 7
b10000001010100000 Q
b1010100000 L
#1385
b10110100 C
0B
b1011 D
1A
b10000 H
b1100 F
b0 !
b0 E
1"
0#
1*
#1390
0*
#1395
b10110100 !
b10110100 E
0"
1#
1*
b11000 /
b10110 1
#1400
b0 C
1B
b10000 H
b0 D
0A
b100000010110 G
0*
b1000100 4
b10000001011000000 )
b10000001011000000 7
b10000001011000000 Q
b1011000000 L
#1405
b10110101 C
0B
b1100 D
1A
b10000 H
b1101 F
b0 !
b0 E
1"
0#
1*
#1410
0*
#1415
b10110101 !
b10110101 E
0"
1#
1*
b11001 /
b10111 1
#1420
b0 C
1B
b10000 H
b0 D
0A
b100000010111 G
0*
b1000101 4
b10000001011100000 )
b10000001011100000 7
b10000001011100000 Q
b1011100000 L
#1425
b10110110 C
0B
b1101 D
1A
b10000 H
b1110 F
b0 !
b0 E
1"
0#
1*
#1430
0*
#1435
b10110110 !
b10110110 E
0"
1#
1*
b11010 /
b11000 1
#1440
b0 C
1B
b10000 H
b0 D
0A
b100000011000 G
0*
b1000110 4
b10000001100000000 )
b10000001100000000 7
b10000001100000000 Q
b1100000000 L
#1445
b10110111 C
0B
b1110 D
1A
b10000 H
b1111 F
b0 !
b0 E
1"
0#
1*
#1450
0*
#1455
b10110111 !
b10110111 E
0"
1#
1*
b11011 /
b11001 1
#1460
b0 C
1B
b10000 H
b0 D
0A
b100000011001 G
0*
b1000111 4
b10000001100100000 )
b10000001100100000 7
b10000001100100000 Q
b1100100000 L
#1465
b10111000 C
0B
b1111 D
1A
b10000 H
b0 F
b0 !
b0 E
1"
0#
1*
#1470
0*
#1475
b10111000 !
b10111000 E
0"
1#
1*
b11100 /
b11010 1
#1480
b0 C
1B
b10000 H
b0 D
0A
b100000011010 G
0*
b1001000 4
b10000001101000000 )
b10000001101000000 7
b10000001101000000 Q
b1101000000 L
#1485
b10111001 C
0B
1A
b10000 H
b1 F
b0 !
b0 E
1"
0#
1*
#1490
0*
#1495
b10111001 !
b10111001 E
0"
1#
1*
b11101 /
b11011 1
#1500
b0 C
1B
b10000 H
0A
b100000011011 G
0*
b1001001 4
b10000001101100000 )
b10000001101100000 7
b10000001101100000 Q
b1101100000 L
#1505
b10101010 C
0B
b1 D
1A
b10000 H
b10 F
b0 !
b0 E
1"
0#
1*
#1510
0*
#1515
b10101010 !
b10101010 E
0"
1#
1*
b11110 /
b11100 1
#1520
b0 C
1B
b10000 H
b0 D
0A
b100000011100 G
0*
b1001010 4
b10000001110000000 )
b10000001110000000 7
b10000001110000000 Q
b1110000000 L
#1525
b10101011 C
0B
b10 D
1A
b10000 H
b11 F
b0 !
b0 E
1"
0#
1*
#1530
0*
#1535
b10101011 !
b10101011 E
0"
1#
1*
b11111 /
b11101 1
#1540
b0 C
1B
b10000 H
b0 D
0A
b100000011101 G
0*
b1001011 4
b10000001110100000 )
b10000001110100000 7
b10000001110100000 Q
b1110100000 L
#1545
b10000 C
0B
b11 D
1A
b10000 H
b100 F
b0 !
b0 E
1"
0#
1*
#1550
0*
#1555
b10000 !
b10000 E
0"
1#
1*
b100000 /
b11110 1
#1560
b0 C
1B
b10000 H
b0 D
0A
b100000011110 G
0*
b1001100 4
b10000001111000000 )
b10000001111000000 7
b10000001111000000 Q
b1111000000 L
#1565
b10101101 C
0B
b100 D
1A
b10000 H
b101 F
b0 !
b0 E
1"
0#
1*
#1570
0*
#1575
b10101101 !
b10101101 E
0"
1#
1*
b100001 /
b11111 1
#1580
b0 C
1B
b10000 H
b0 D
0A
b100000011111 G
0*
b1001101 4
b10000001111100000 )
b10000001111100000 7
b10000001111100000 Q
b1111100000 L
#1585
b10101110 C
0B
b101 D
1A
b10000 H
b110 F
b0 !
b0 E
1"
0#
1*
#1590
0*
#1595
b10101110 !
b10101110 E
0"
1#
1*
b100010 /
b100000 1
#1600
b0 C
1B
b10000 H
b0 D
0A
b1000000000000 G
0*
b1001110 4
b100000000000000000 )
b100000000000000000 7
b100000000000000000 Q
b0 1
b10000000000 L
#1605
b10101111 C
0B
b110 D
1A
b10000 H
b111 F
b0 !
b0 E
1"
0#
1*
#1610
0*
#1615
b10101111 !
b10101111 E
0"
1#
1*
b100011 /
b1 1
#1620
b0 C
1B
b10000 H
b0 D
0A
b1000000000001 G
0*
b1001111 4
b100000000000100000 )
b100000000000100000 7
b100000000000100000 Q
b100000 M
#1625
b10110000 C
0B
b111 D
1A
b10000 H
b1000 F
b0 !
b0 E
1"
0#
1*
#1630
0*
#1635
b10110000 !
b10110000 E
0"
1#
1*
b100100 /
b10 1
#1640
b0 C
1B
b10000 H
b0 D
0A
b1000000000010 G
0*
b1010000 4
b100000000001000000 )
b100000000001000000 7
b100000000001000000 Q
b1000000 M
#1645
b10110001 C
0B
b1000 D
1A
b10000 H
b1001 F
b0 !
b0 E
1"
0#
1*
#1650
0*
#1655
b10110001 !
b10110001 E
0"
1#
1*
b100101 /
b11 1
#1660
b0 C
1B
b10000 H
b0 D
0A
b1000000000011 G
0*
b1010001 4
b100000000001100000 )
b100000000001100000 7
b100000000001100000 Q
b1100000 M
#1665
b10110010 C
0B
b1001 D
1A
b10000 H
b1010 F
b0 !
b0 E
1"
0#
1*
#1670
0*
#1675
b10110010 !
b10110010 E
0"
1#
1*
b100110 /
b100 1
#1680
b0 C
1B
b10000 H
b0 D
0A
b1000000000100 G
0*
b1010010 4
b100000000010000000 )
b100000000010000000 7
b100000000010000000 Q
b10000000 M
#1685
b10110011 C
0B
b1010 D
1A
b10000 H
b1011 F
b0 !
b0 E
1"
0#
1*
#1690
0*
#1695
b10110011 !
b10110011 E
0"
1#
1*
b100111 /
b101 1
#1700
b0 C
1B
b10000 H
b0 D
0A
b1000000000101 G
0*
b1010011 4
b100000000010100000 )
b100000000010100000 7
b100000000010100000 Q
b10100000 M
#1705
b10110100 C
0B
b1011 D
1A
b10000 H
b1100 F
b0 !
b0 E
1"
0#
1*
#1710
0*
#1715
b10110100 !
b10110100 E
0"
1#
1*
b101000 /
b110 1
#1720
b0 C
1B
b10000 H
b0 D
0A
b1000000000110 G
0*
b1010100 4
b100000000011000000 )
b100000000011000000 7
b100000000011000000 Q
b11000000 M
#1725
b10110101 C
0B
b1100 D
1A
b10000 H
b1101 F
b0 !
b0 E
1"
0#
1*
#1730
0*
