iceBlinkPico-main/projects/cachef/set_associative_cache.vcd
$date
	Wed May  7 14:33:23 2025
$end
$version
	Icarus Verilog
$end
$timescale
	1s
$end
$scope module set_associative_cache_tb $end
$var wire 8 ! rd_data [7:0] $end
$var wire 1 " miss $end
$var wire 1 # hit $end
$var parameter 32 $ ASSOC $end
$var parameter 32 % BLOCK_OFFSET_WIDTH $end
$var parameter 32 & BLOCK_SIZE $end
$var parameter 32 ' CACHE_SIZE $end
$var parameter 32 ( INDEX_WIDTH $end
$var parameter 64 ) NUM_SETS $end
$var parameter 32 * PERIOD $end
$var parameter 34 + TAG_WIDTH $end
$var reg 32 , addr [31:0] $end
$var reg 1 - clk $end
$var reg 1 . reset $end
$var reg 8 / wr_data [7:0] $end
$var reg 1 0 wr_en $end
$var integer 32 1 read_hits [31:0] $end
$var integer 32 2 read_misses [31:0] $end
$var integer 32 3 test_read_hits [31:0] $end
$var integer 32 4 test_read_misses [31:0] $end
$var integer 32 5 test_write_hits [31:0] $end
$var integer 32 6 test_write_misses [31:0] $end
$var integer 32 7 total_accesses [31:0] $end
$var integer 32 8 write_hits [31:0] $end
$var integer 32 9 write_misses [31:0] $end
$scope function generate_addr $end
$var reg 5 : offset [4:0] $end
$var reg 3 ; set_idx [2:0] $end
$var reg 32 < tag_val [31:0] $end
$upscope $end
$scope module dut $end
$var wire 32 = addr [31:0] $end
$var wire 1 - clk $end
$var wire 1 . reset $end
$var wire 8 > wr_data [7:0] $end
$var wire 1 0 wr_en $end
$var parameter 32 ? ASSOC $end
$var parameter 32 @ BLOCK_OFFSET_WIDTH $end
$var parameter 32 A BLOCK_SIZE $end
$var parameter 32 B CACHE_SIZE $end
$var parameter 32 C INDEX_WIDTH $end
$var parameter 64 D NUM_SETS $end
$var parameter 34 E TAG_WIDTH $end
$var reg 5 F block_offset [4:0] $end
$var reg 1 G current_hit $end
$var reg 1 H current_miss $end
$var reg 8 I current_rd_data [7:0] $end
$var reg 1 # hit $end
$var reg 1 J hit_way $end
$var reg 3 K index [2:0] $end
$var reg 1 " miss $end
$var reg 8 L rd_data [7:0] $end
$var reg 24 M tag [23:0] $end
$scope begin $ivl_for_loop0 $end
$var integer 32 N i [31:0] $end
$upscope $end
$scope begin $ivl_for_loop1 $end
$var integer 32 O s [31:0] $end
$scope begin $ivl_for_loop2 $end
$var integer 32 P i [31:0] $end
$upscope $end
$upscope $end
$upscope $end
$scope begin $ivl_for_loop10 $end
$var integer 32 Q i [31:0] $end
$upscope $end
$scope begin $ivl_for_loop11 $end
$var integer 32 R i [31:0] $end
$upscope $end
$scope begin $ivl_for_loop12 $end
$var integer 32 S s [31:0] $end
$scope begin $ivl_for_loop13 $end
$var integer 32 T w [31:0] $end
$upscope $end
$upscope $end
$scope begin $ivl_for_loop14 $end
$var integer 32 U s [31:0] $end
$scope begin $ivl_for_loop15 $end
$var integer 32 V w [31:0] $end
$upscope $end
$upscope $end
$scope begin $ivl_for_loop16 $end
$var integer 32 W i [31:0] $end
$upscope $end
$scope begin $ivl_for_loop17 $end
$var integer 32 X o [31:0] $end
$upscope $end
$scope begin $ivl_for_loop18 $end
$var integer 32 Y o [31:0] $end
$upscope $end
$scope begin $ivl_for_loop3 $end
$var integer 32 Z i [31:0] $end
$upscope $end
$scope begin $ivl_for_loop4 $end
$var integer 32 [ i [31:0] $end
$upscope $end
$scope begin $ivl_for_loop5 $end
$var integer 32 \ s [31:0] $end
$upscope $end
$scope begin $ivl_for_loop6 $end
$var integer 32 ] s [31:0] $end
$upscope $end
$scope begin $ivl_for_loop7 $end
$var integer 32 ^ i [31:0] $end
$upscope $end
$scope begin $ivl_for_loop8 $end
$var integer 32 _ i [31:0] $end
$upscope $end
$scope begin $ivl_for_loop9 $end
$var integer 32 ` i [31:0] $end
$upscope $end
$scope task display_test_results $end
$upscope $end
$scope task read_access $end
$var reg 32 a read_addr [31:0] $end
$upscope $end
$scope task write_access $end
$var reg 8 b data_to_write [7:0] $end
$var reg 32 c write_addr [31:0] $end
$upscope $end
$upscope $end
$enddefinitions $end
$comment Show the parameter values. $end
$dumpall
b11000 E
b1000 D
b11 C
b1000000000 B
b100000 A
b101 @
b10 ?
b11000 +
b1010 *
b1000 )
b11 (
b1000000000 '
b100000 &
b101 %
b10 $
$end
#0
$dumpvars
bx c
bx b
bx a
b0 `
b0 _
b0 ^
b0 ]
b0 \
b0 [
b0 Z
b0 Y
b0 X
b0 W
b0 V
b0 U
b0 T
b0 S
b0 R
b0 Q
b10 P
b1000 O
b10 N
b0 M
b0 L
b0 K
0J
b0 I
1H
0G
b0 F
b0 >
b0 =
bx <
bx ;
bx :
b0 9
b0 8
b0 7
bx 6
bx 5
bx 4
bx 3
b0 2
b0 1
x0
b0 /
1.
0-
b0 ,
0#
0"
b0 !
$end
#5
b10 P
b1000 O
1-
#10
0-
#15
b10 P
b1000 O
1-
#20
0-
#25
b10 P
b1000 O
1-
#30
0-
#35
b10 P
b1000 O
1-
#40
0-
#45
b10 P
b1000 O
1-
#50
0-
0.
#55
0H
1G
b10 N
1"
1-
#60
1H
b10 N
0G
b1 M
0-
b1 7
10
b10101010 /
b10101010 >
b100000000 ,
b100000000 =
b10101010 b
b100000000 c
b1 <
b0 ;
b0 :
b0 6
b0 5
b0 4
b0 3
#65
0H
1J
1G
b10 N
1-
#70
0-
#75
0"
1#
1-
b1 9
b1 6
#80
1H
b10 N
0J
0G
b10 M
0-
b10 7
b10101011 /
b10101011 >
b1000000000 ,
b1000000000 =
b10101011 b
b1000000000 c
b10 <
b1 Z
#85
0H
1G
b10 N
1"
0#
1-
#90
0-
#95
0"
1#
1-
b10 9
b10 6
#100
b10101010 I
1J
b10 N
1G
b1 M
0-
b11 7
00
b100000000 ,
b100000000 =
b100000000 a
b1 <
b0 6
b10 Z
#105
b10101010 !
b10101010 L
1-
#110
0-
#115
1-
b1 1
b1 3
#120
b10101011 I
b10 N
0J
1G
b10 M
0-
b100 7
b1000000000 ,
b1000000000 =
b1000000000 a
b10 <
b1 [
#125
b10101011 !
b10101011 L
1-
#130
0-
#135
1-
b10 1
b10 3
#140
b0 I
1H
b10 N
0G
b11 M
0-
b101 7
10
b11111111 /
b11111111 >
b1100000000 ,
b1100000000 =
b11111111 b
b1100000000 c
b11 <
b0 3
b10 [
#145
0H
1J
1G
b10 N
b0 !
b0 L
1"
0#
1-
#150
0-
#155
0"
1#
1-
b11 9
b1 6
#160
1H
b10 N
0J
0G
b1 M
0-
b110 7
00
b100000000 ,
b100000000 =
b100000000 a
b1 <
b0 6
#165
b10101011 I
0H
1G
b10 N
1"
0#
1-
#170
0-
#175
b10101011 !
b10101011 L
0"
1#
1-
b1 2
b1 4
#180
b11111111 I
1J
b10 N
1G
b11 M
0-
b111 7
b1100000000 ,
b1100000000 =
b1100000000 a
b11 <
b0 4
#185
b11111111 !
b11111111 L
1-
#190
0-
#195
1-
b11 1
b1 3
#200
b0 I
1H
b10 N
0J
0G
b1010 M
0-
b1000 7
10
b10000 /
b10000 >
b101000000000 ,
b101000000000 =
b10000 b
b101000000000 c
b1010 <
b0 3
#205
0H
1J
1G
b10 N
b0 !
b0 L
1"
0#
1-
#210
0-
#215
0"
1#
1-
b100 9
b1 6
#220
1H
b10 N
0J
0G
b1 K
b1011 M
0-
b1001 7
b10001 /
b10001 >
b101100100000 ,
b101100100000 =
b10001 b
b101100100000 c
b1011 <
b1 ;
b1 \
#225
0H
1G
b10 N
1"
0#
1-
#230
0-
#235
0"
1#
1-
b101 9
b10 6
#240
1H
b10 N
0G
b10 K
b1100 M
0-
b1010 7
b10010 /
b10010 >
b110001000000 ,
b110001000000 =
b10010 b
b110001000000 c
b1100 <
b10 ;
b10 \
#245
0H
1G
b10 N
1"
0#
1-
#250
0-
#255
0"
1#
1-
b110 9
b11 6
#260
1H
b10 N
0G
b11 K
b1101 M
0-
b1011 7
b10011 /
b10011 >
b110101100000 ,
b110101100000 =
b10011 b
b110101100000 c
b1101 <
b11 ;
b11 \
#265
0H
1G
b10 N
1"
0#
1-
#270
0-
#275
0"
1#
1-
b111 9
b100 6
#280
1H
b10 N
0G
b100 K
b1110 M
0-
b1100 7
b10100 /
b10100 >
b111010000000 ,
b111010000000 =
b10100 b
b111010000000 c
b1110 <
b100 ;
b100 \
#285
0H
1G
b10 N
1"
0#
1-
#290
0-
#295
0"
1#
1-
b1000 9
b101 6
#300
1H
b10 N
0G
b101 K
b1111 M
0-
b1101 7
b10101 /
b10101 >
b111110100000 ,
b111110100000 =
b10101 b
b111110100000 c
b1111 <
b101 ;
b101 \
#305
0H
1G
b10 N
1"
0#
1-
#310
0-
#315
0"
1#
1-
b1001 9
b110 6
#320
1H
b10 N
0G
b110 K
b10000 M
0-
b1110 7
b10110 /
b10110 >
b1000011000000 ,
b1000011000000 =
b10110 b
b1000011000000 c
b10000 <
b110 ;
b110 \
#325
0H
1G
b10 N
1"
0#
1-
#330
0-
#335
0"
1#
1-
b1010 9
b111 6
#340
1H
b10 N
0G
b111 K
b10001 M
0-
b1111 7
b10111 /
b10111 >
b1000111100000 ,
b1000111100000 =
b10111 b
b1000111100000 c
b10001 <
b111 ;
b111 \
#345
0H
1G
b10 N
1"
0#
1-
#350
0-
#355
0"
1#
1-
b1011 9
b1000 6
#360
b10000 I
1J
b10 N
1G
b0 K
b1010 M
0-
b10000 7
00
b101000000000 ,
b101000000000 =
b101000000000 a
b1010 <
b0 ;
b1000 \
#365
b10000 !
b10000 L
1-
#370
0-
#375
1-
b100 1
b1 3
#380
b10001 I
b10 N
0J
1G
b1 K
b1011 M
0-
b10001 7
b101100100000 ,
b101100100000 =
b101100100000 a
b1011 <
b1 ;
b1 ]
#385
b10001 !
b10001 L
1-
#390
0-
#395
1-
b101 1
b10 3
#400
b10010 I
b10 N
1G
b10 K
b1100 M
0-
b10010 7
b110001000000 ,
b110001000000 =
b110001000000 a
b1100 <
b10 ;
b10 ]
#405
b10010 !
b10010 L
1-
#410
0-
#415
1-
b110 1
b11 3
#420
b10011 I
b10 N
1G
b11 K
b1101 M
0-
b10011 7
b110101100000 ,
b110101100000 =
b110101100000 a
b1101 <
b11 ;
b11 ]
#425
b10011 !
b10011 L
1-
#430
0-
#435
1-
b111 1
b100 3
#440
b10100 I
b10 N
1G
b100 K
b1110 M
0-
b10100 7
b111010000000 ,
b111010000000 =
b111010000000 a
b1110 <
b100 ;
b100 ]
#445
b10100 !
b10100 L
1-
#450
0-
#455
1-
b1000 1
b101 3
#460
b10101 I
b10 N
1G
b101 K
b1111 M
0-
b10101 7
b111110100000 ,
b111110100000 =
b111110100000 a
b1111 <
b101 ;
b101 ]
#465
b10101 !
b10101 L
1-
#470
0-
#475
1-
b1001 1
b110 3
#480
b10110 I
b10 N
1G
b110 K
b10000 M
0-
b10110 7
b1000011000000 ,
b1000011000000 =
b1000011000000 a
b10000 <
b110 ;
b110 ]
#485
b10110 !
b10110 L
1-
#490
0-
#495
1-
b1010 1
b111 3
#500
b10111 I
b10 N
1G
b111 K
b10001 M
0-
b10111 7
b1000111100000 ,
b1000111100000 =
b1000111100000 a
b10001 <
b111 ;
b111 ]
#505
b10111 !
b10111 L
1-
#510
0-
#515
1-
b1011 1
b1000 3
#520
b0 I
1H
b10 N
0G
b1 K
b10100 M
0-
b11000 7
10
b100000 /
b100000 >
b1010000100000 ,
b1010000100000 =
b100000 b
b1010000100000 c
b10100 <
b1 ;
b0 6
b0 3
b1000 ]
#525
0H
1J
1G
b10 N
b0 !
b0 L
1"
0#
1-
#530
0-
#535
0"
1#
1-
b1100 9
b1 6
#540
b10 N
1J
1G
b1 F
0-
b11001 7
b100001 /
b100001 >
b1010000100001 ,
b1010000100001 =
b100001 b
b1010000100001 c
b1 :
#545
b10 N
1J
1G
1-
#550
0-
#555
1-
b1 8
b1 5
#560
b10 N
1J
1G
b11111 F
0-
b11010 7
b101111 /
b101111 >
b1010000111111 ,
b1010000111111 =
b101111 b
b1010000111111 c
b11111 :
#565
b10 N
1J
1G
1-
#570
0-
#575
1-
b10 8
b10 5
#580
b100000 I
b10 N
1J
1G
b0 F
0-
b11011 7
00
b1010000100000 ,
b1010000100000 =
b1010000100000 a
b0 :
#585
b100000 !
b100000 L
1-
#590
0-
#595
1-
b1100 1
b1 3
#600
b100001 I
b10 N
1J
1G
b1 F
0-
b11100 7
b1010000100001 ,
b1010000100001 =
b1010000100001 a
b1 :
#605
b100001 !
b100001 L
1-
#610
0-
#615
1-
b1101 1
b10 3
#620
b101111 I
b10 N
1J
1G
b11111 F
0-
b11101 7
b1010000111111 ,
b1010000111111 =
b1010000111111 a
b11111 :
#625
b101111 !
b101111 L
1-
#630
0-
#635
1-
b1110 1
b11 3
#640
b0 I
1H
b10 N
0J
0G
b0 F
b10 K
b11110 M
0-
b11110 7
10
b110000 /
b110000 >
b1111001000000 ,
b1111001000000 =
b110000 b
b1111001000000 c
b11110 <
b10 ;
b0 :
b0 6
b0 5
b0 3
#645
0H
1J
1G
b10 N
b0 !
b0 L
1"
0#
1-
#650
0-
#655
0"
1#
1-
b1101 9
b1 6
#660
1H
b10 N
0J
0G
b11111 M
0-
b11111 7
b110001 /
b110001 >
b1111101000000 ,
b1111101000000 =
b110001 b
b1111101000000 c
b11111 <
b1 ^
#665
0H
1G
b10 N
1"
0#
1-
#670
0-
#675
0"
1#
1-
b1110 9
b10 6
#680
1H
b10 N
0G
b100000 M
0-
b100000 7
b110010 /
b110010 >
b10000001000000 ,
b10000001000000 =
b110010 b
b10000001000000 c
b100000 <
b10 ^
#685
0H
1J
1G
b10 N
1"
0#
1-
#690
0-
#695
0"
1#
1-
b1111 9
b11 6
#700
1H
b10 N
0J
0G
b100001 M
0-
b100001 7
b110011 /
b110011 >
b10000101000000 ,
b10000101000000 =
b110011 b
b10000101000000 c
b100001 <
b11 ^
#705
0H
1G
b10 N
1"
0#
1-
#710
0-
#715
0"
1#
1-
b10000 9
b100 6
#720
1H
b10 N
0G
b11110 M
0-
b100010 7
00
b1111001000000 ,
b1111001000000 =
b1111001000000 a
b11110 <
b0 6
b100 ^
#725
b110010 I
0H
1J
1G
b10 N
1"
0#
1-
#730
0-
#735
b110010 !
b110010 L
0"
1#
1-
b10 2
b1 4
#740
b0 I
1H
b10 N
0J
0G
b11111 M
0-
b100011 7
b1111101000000 ,
b1111101000000 =
b1111101000000 a
b11111 <
#745
b110011 I
0H
1G
b10 N
b0 !
b0 L
1"
0#
1-
#750
0-
#755
b110011 !
b110011 L
0"
1#
1-
b11 2
b10 4
#760
b0 I
1H
b10 N
0G
b100000 M
0-
b100100 7
b10000001000000 ,
b10000001000000 =
b10000001000000 a
b100000 <
#765
b110010 I
0H
1J
1G
b10 N
b0 !
b0 L
1"
0#
1-
#770
0-
#775
b110010 !
b110010 L
0"
1#
1-
b100 2
b11 4
#780
b0 I
1H
b10 N
0J
0G
b100001 M
0-
b100101 7
b10000101000000 ,
b10000101000000 =
b10000101000000 a
b100001 <
#785
b110011 I
0H
1G
b10 N
b0 !
b0 L
1"
0#
1-
#790
0-
#795
b110011 !
b110011 L
0"
1#
1-
b101 2
b100 4
#800
b110010 I
1J
b10 N
1G
b100000 M
0-
b100110 7
b10000001000000 ,
b10000001000000 =
b10000001000000 a
b100000 <
#805
b110010 !
b110010 L
1-
#810
0-
#815
1-
b1111 1
b1 3
#820
b110011 I
b10 N
0J
1G
b100001 M
0-
b100111 7
b10000101000000 ,
b10000101000000 =
b10000101000000 a
b100001 <
#825
b110011 !
b110011 L
1-
#830
0-
#835
1-
b10000 1
b10 3
#840
b0 I
1H
b10 N
0G
b11 K
b101000 M
0-
b101000 7
10
b1000000 /
b1000000 >
b10100001100000 ,
b10100001100000 =
b1000000 b
b10100001100000 c
b101000 <
b11 ;
b0 4
b0 3
#845
0H
1J
1G
b10 N
b0 !
b0 L
1"
0#
1-
#850
0-
#855
0"
1#
1-
b10001 9
b1 6
#860
1H
b10 N
0J
0G
b101001 M
0-
b101001 7
b1000001 /
b1000001 >
b10100101100000 ,
b10100101100000 =
b1000001 b
b10100101100000 c
b101001 <
b1 _
#865
0H
1G
b10 N
1"
0#
1-
#870
0-
#875
0"
1#
1-
b10010 9
b10 6
#880
1H
b10 N
0G
b110010 M
0-
b101010 7
b1010000 /
b1010000 >
b11001001100000 ,
b11001001100000 =
b1010000 b
b11001001100000 c
b110010 <
b10 _
#885
0H
1J
1G
b10 N
1"
0#
1-
#890
0-
#895
0"
1#
1-
b10011 9
b11 6
#900
1H
b10 N
0J
0G
b110011 M
0-
b101011 7
b1010001 /
b1010001 >
b11001101100000 ,
b11001101100000 =
b1010001 b
b11001101100000 c
b110011 <
b1 `
#905
0H
1G
b10 N
1"
0#
1-
#910
0-
#915
0"
1#
1-
b10100 9
b100 6
#920
1H
b10 N
0G
b101000 M
0-
b101100 7
00
b10100001100000 ,
b10100001100000 =
b10100001100000 a
b101000 <
b10 `
#925
b1010000 I
0H
1J
1G
b10 N
1"
0#
1-
#930
0-
#935
b1010000 !
b1010000 L
0"
1#
1-
b110 2
b1 4
#940
b0 I
1H
b10 N
0J
0G
b101001 M
0-
b101101 7
b10100101100000 ,
b10100101100000 =
b10100101100000 a
b101001 <
b1 Q
#945
b1010001 I
0H
1G
b10 N
b0 !
b0 L
1"
0#
1-
#950
0-
#955
b1010001 !
b1010001 L
0"
1#
1-
b111 2
b10 4
#960
b0 I
1H
b10 N
0G
b110010 M
0-
b101110 7
b11001001100000 ,
b11001001100000 =
b11001001100000 a
b110010 <
b10 Q
#965
b1010000 I
0H
1J
1G
b10 N
b0 !
b0 L
1"
0#
1-
#970
0-
#975
b1010000 !
b1010000 L
0"
1#
1-
b1000 2
b11 4
#980
b0 I
1H
b10 N
0J
0G
b110011 M
0-
b101111 7
b11001101100000 ,
b11001101100000 =
b11001101100000 a
b110011 <
b1 R
#985
b1010001 I
0H
1G
b10 N
b0 !
b0 L
1"
0#
1-
#990
0-
#995
b1010001 !
b1010001 L
0"
1#
1-
b1001 2
b100 4
#1000
b0 I
1H
b10 N
0G
b0 K
b111100 M
0-
b110000 7
10
b1100000 /
b1100000 >
b11110000000000 ,
b11110000000000 =
b1100000 b
b11110000000000 c
b111100 <
b0 ;
b0 6
b0 4
b10 R
#1005
0H
1G
b10 N
b0 !
b0 L
1"
0#
1-
#1010
0-
#1015
0"
1#
1-
b10101 9
b1 6
#1020
1H
b10 N
0G
b111101 M
0-
b110001 7
b1100001 /
b1100001 >
b11110100000000 ,
b11110100000000 =
b1100001 b
b11110100000000 c
b111101 <
b1 T
#1025
0H
1J
1G
b10 N
1"
0#
1-
#1030
0-
#1035
0"
1#
1-
b10110 9
b10 6
#1040
1H
b10 N
0J
0G
b1 K
b111100 M
0-
b110010 7
b11110000100000 ,
b11110000100000 =
b11110000100000 c
b111100 <
b1 ;
b1 S
b0 T
#1045
0H
1G
b10 N
1"
0#
1-
#1050
0-
#1055
0"
1#
1-
b10111 9
b11 6
#1060
1H
b10 N
0G
b111101 M
0-
b110011 7
b1100010 /
b1100010 >
b11110100100000 ,
b11110100100000 =
b1100010 b
b11110100100000 c
b111101 <
b1 T
#1065
0H
1J
1G
b10 N
1"
0#
1-
#1070
0-
#1075
0"
1#
1-
b11000 9
b100 6
#1080
1H
b10 N
0J
0G
b10 K
b111100 M
0-
b110100 7
b11110001000000 ,
b11110001000000 =
b11110001000000 c
b111100 <
b10 ;
b10 S
b0 T
#1085
0H
1J
1G
b10 N
1"
0#
1-
#1090
0-
#1095
0"
1#
1-
b11001 9
b101 6
#1100
1H
b10 N
0J
0G
b111101 M
0-
b110101 7
b1100011 /
b1100011 >
b11110101000000 ,
b11110101000000 =
b1100011 b
b11110101000000 c
b111101 <
b1 T
#1105
0H
1G
b10 N
1"
0#
1-
#1110
0-
#1115
0"
1#
1-
b11010 9
b110 6
#1120
1H
b10 N
0G
b11 K
b111100 M
0-
b110110 7
b11110001100000 ,
b11110001100000 =
b11110001100000 c
b111100 <
b11 ;
b11 S
b0 T
#1125
0H
1J
1G
b10 N
1"
0#
1-
#1130
0-
#1135
0"
1#
1-
b11011 9
b111 6
#1140
1H
b10 N
0J
0G
b111101 M
0-
b110111 7
b1100100 /
b1100100 >
b11110101100000 ,
b11110101100000 =
b1100100 b
b11110101100000 c
b111101 <
b1 T
#1145
0H
1G
b10 N
1"
0#
1-
#1150
0-
#1155
0"
1#
1-
b11100 9
b1000 6
#1160
1H
b10 N
0G
b100 K
b111100 M
0-
b111000 7
b11110010000000 ,
b11110010000000 =
b11110010000000 c
b111100 <
b100 ;
b100 S
b0 T
#1165
0H
1J
1G
b10 N
1"
0#
1-
#1170
0-
#1175
0"
1#
1-
b11101 9
b1001 6
#1180
1H
b10 N
0J
0G
b111101 M
0-
b111001 7
b1100101 /
b1100101 >
b11110110000000 ,
b11110110000000 =
b1100101 b
b11110110000000 c
b111101 <
b1 T
#1185
0H
1G
b10 N
1"
0#
1-
#1190
0-
#1195
0"
1#
1-
b11110 9
b1010 6
#1200
1H
b10 N
0G
b101 K
b111100 M
0-
b111010 7
b11110010100000 ,
b11110010100000 =
b11110010100000 c
b111100 <
b101 ;
b101 S
b0 T
#1205
0H
1J
1G
b10 N
1"
0#
1-
#1210
0-
#1215
0"
1#
1-
b11111 9
b1011 6
#1220
1H
b10 N
0J
0G
b111101 M
0-
b111011 7
b1100110 /
b1100110 >
b11110110100000 ,
b11110110100000 =
b1100110 b
b11110110100000 c
b111101 <
b1 T
#1225
0H
1G
b10 N
1"
0#
1-
#1230
0-
#1235
0"
1#
1-
b100000 9
b1100 6
#1240
1H
b10 N
0G
b110 K
b111100 M
0-
b111100 7
b11110011000000 ,
b11110011000000 =
b11110011000000 c
b111100 <
b110 ;
b110 S
b0 T
#1245
0H
1J
1G
b10 N
1"
0#
1-
#1250
0-
#1255
0"
1#
1-
b100001 9
b1101 6
#1260
1H
b10 N
0J
0G
b111101 M
0-
b111101 7
b1100111 /
b1100111 >
b11110111000000 ,
b11110111000000 =
b1100111 b
b11110111000000 c
b111101 <
b1 T
#1265
0H
1G
b10 N
1"
0#
1-
#1270
0-
#1275
0"
1#
1-
b100010 9
b1110 6
#1280
1H
b10 N
0G
b111 K
b111100 M
0-
b111110 7
b11110011100000 ,
b11110011100000 =
b11110011100000 c
b111100 <
b111 ;
b111 S
b0 T
#1285
0H
1J
1G
b10 N
1"
0#
1-
#1290
0-
#1295
0"
1#
1-
b100011 9
b1111 6
#1300
1H
b10 N
0J
0G
b111101 M
0-
b111111 7
b1101000 /
b1101000 >
b11110111100000 ,
b11110111100000 =
b1101000 b
b11110111100000 c
b111101 <
b1 T
#1305
0H
1G
b10 N
1"
0#
1-
#1310
0-
#1315
0"
1#
1-
b100100 9
b10000 6
#1320
b1100000 I
b10 N
1G
b0 K
b111100 M
0-
b1000000 7
00
b11110000000000 ,
b11110000000000 =
b11110000000000 a
b111100 <
b0 ;
b1000 S
b10 T
#1325
b1100000 !
b1100000 L
1-
#1330
0-
#1335
1-
b10001 1
b1 3
#1340
b1100001 I
1J
b10 N
1G
b111101 M
0-
b1000001 7
b11110100000000 ,
b11110100000000 =
b11110100000000 a
b111101 <
b1 V
#1345
b1100001 !
b1100001 L
1-
#1350
0-
#1355
1-
b10010 1
b10 3
#1360
b10 N
0J
1G
b1 K
b111100 M
0-
b1000010 7
b11110000100000 ,
b11110000100000 =
b11110000100000 a
b111100 <
b1 ;
b1 U
b0 V
#1365
1-
#1370
0-
#1375
1-
b10011 1
b11 3
#1380
b1100010 I
1J
b10 N
1G
b111101 M
0-
b1000011 7
b11110100100000 ,
b11110100100000 =
b11110100100000 a
b111101 <
b1 V
#1385
b1100010 !
b1100010 L
1-
#1390
0-
#1395
1-
b10100 1
b100 3
#1400
b10 N
1J
1G
b10 K
b111100 M
0-
b1000100 7
b11110001000000 ,
b11110001000000 =
b11110001000000 a
b111100 <
b10 ;
b10 U
b0 V
#1405
1-
#1410
0-
#1415
1-
b10101 1
b101 3
#1420
b1100011 I
b10 N
0J
1G
b111101 M
0-
b1000101 7
b11110101000000 ,
b11110101000000 =
b11110101000000 a
b111101 <
b1 V
#1425
b1100011 !
b1100011 L
1-
#1430
0-
#1435
1-
b10110 1
b110 3
#1440
1J
b10 N
1G
b11 K
b111100 M
0-
b1000110 7
b11110001100000 ,
b11110001100000 =
b11110001100000 a
b111100 <
b11 ;
b11 U
b0 V
#1445
1-
#1450
0-
#1455
1-
b10111 1
b111 3
#1460
b1100100 I
b10 N
0J
1G
b111101 M
0-
b1000111 7
b11110101100000 ,
b11110101100000 =
b11110101100000 a
b111101 <
b1 V
#1465
b1100100 !
b1100100 L
1-
#1470
0-
#1475
1-
b11000 1
b1000 3
#1480
1J
b10 N
1G
b100 K
b111100 M
0-
b1001000 7
b11110010000000 ,
b11110010000000 =
b11110010000000 a
b111100 <
b100 ;
b100 U
b0 V
#1485
1-
#1490
0-
#1495
1-
b11001 1
b1001 3
#1500
b1100101 I
b10 N
0J
1G
b111101 M
0-
b1001001 7
b11110110000000 ,
b11110110000000 =
b11110110000000 a
b111101 <
b1 V
#1505
b1100101 !
b1100101 L
1-
#1510
0-
#1515
1-
b11010 1
b1010 3
#1520
1J
b10 N
1G
b101 K
b111100 M
0-
b1001010 7
b11110010100000 ,
b11110010100000 =
b11110010100000 a
b111100 <
b101 ;
b101 U
b0 V
#1525
1-
#1530
0-
#1535
1-
b11011 1
b1011 3
#1540
b1100110 I
b10 N
0J
1G
b111101 M
0-
b1001011 7
b11110110100000 ,
b11110110100000 =
b11110110100000 a
b111101 <
b1 V
#1545
b1100110 !
b1100110 L
1-
#1550
0-
#1555
1-
b11100 1
b1100 3
#1560
1J
b10 N
1G
b110 K
b111100 M
0-
b1001100 7
b11110011000000 ,
b11110011000000 =
b11110011000000 a
b111100 <
b110 ;
b110 U
b0 V
#1565
1-
#1570
0-
#1575
1-
b11101 1
b1101 3
#1580
b1100111 I
b10 N
0J
1G
b111101 M
0-
b1001101 7
b11110111000000 ,
b11110111000000 =
b11110111000000 a
b111101 <
b1 V
#1585
b1100111 !
b1100111 L
1-
#1590
0-
#1595
1-
b11110 1
b1110 3
#1600
1J
b10 N
1G
b111 K
b111100 M
0-
b1001110 7
b11110011100000 ,
b11110011100000 =
b11110011100000 a
b111100 <
b111 ;
b111 U
b0 V
#1605
1-
#1610
0-
#1615
1-
b11111 1
b1111 3
#1620
b1101000 I
b10 N
0J
1G
b111101 M
0-
b1001111 7
b11110111100000 ,
b11110111100000 =
b11110111100000 a
b111101 <
b1 V
#1625
b1101000 !
b1101000 L
1-
#1630
0-
#1635
1-
b100000 1
b10000 3
#1640
b0 I
1H
b10 N
0G
b0 K
b1000110 M
0-
b1010000 7
b100011000000000 ,
b100011000000000 =
b100011000000000 a
b1000110 <
b0 ;
b0 6
b0 3
b1000 U
b10 V
#1645
b1100000 I
0H
1G
b10 N
b0 !
b0 L
1"
0#
1-
#1650
0-
#1655
b1100000 !
b1100000 L
0"
1#
1-
b1010 2
b1 4
#1660
b0 I
b10 N
1G
0-
b1010001 7
10
b1110000 /
b1110000 >
b1110000 b
b100011000000000 c
#1665
b10 N
1G
b0 !
b0 L
1-
#1670
0-
#1675
1-
b11 8
b1 5
#1680
b1110000 I
b10 N
1G
0-
b1010010 7
00
#1685
b1110000 !
b1110000 L
1-
#1690
0-
#1695
1-
b100001 1
b1 3
#1700
b0 I
1H
b10 N
0G
b1 K
b1000111 M
0-
b1010011 7
b100011100100000 ,
b100011100100000 =
b100011100100000 a
b1000111 <
b1 ;
#1705
b1100001 I
0H
1G
b10 N
b0 !
b0 L
1"
0#
1-
#1710
0-
#1715
b1100001 !
b1100001 L
0"
1#
1-
b1011 2
b10 4
#1720
b0 I
b10 N
1G
0-
b1010100 7
10
b1110001 /
b1110001 >
b1110001 b
b100011100100000 c
#1725
b10 N
1G
b0 !
b0 L
1-
#1730
0-
#1735
1-
b100 8
b10 5
#1740
b1110001 I
b10 N
1G
0-
b1010101 7
00
#1745
b1110001 !
b1110001 L
1-
#1750
0-
#1755
1-
b100010 1
b10 3
#1760
b1110000 I
b10 N
1G
b0 K
b1000110 M
0-
b1010110 7
b100011000000000 ,
b100011000000000 =
b100011000000000 a
b1000110 <
b0 ;
#1765
b1110000 !
b1110000 L
1-
#1770
0-
#1775
1-
b100011 1
b11 3
#1780
b0 I
1H
b10 N
0G
b1010000 M
0-
b1010111 7
b101000000000000 ,
b101000000000000 =
b101000000000000 a
b1010000 <
b0 5
b0 4
b0 3
#1785
b1100001 I
0H
1J
1G
b10 N
b0 !
b0 L
1"
0#
1-
#1790
0-
#1795
b1100001 !
b1100001 L
0"
1#
1-
b1100 2
b1 4
#1800
b0 I
1H
b10 N
0J
0G
b1 K
b1010001 M
0-
b1011000 7
b101000100100000 ,
b101000100100000 =
b101000100100000 a
b1010001 <
b1 ;
b1 W
#1805
b1100010 I
0H
1J
1G
b10 N
b0 !
b0 L
1"
0#
1-
#1810
0-
#1815
b1100010 !
b1100010 L
0"
1#
1-
b1101 2
b10 4
#1820
b0 I
1H
b10 N
0J
0G
b10 K
b1010010 M
0-
b1011001 7
b101001001000000 ,
b101001001000000 =
b101001001000000 a
b1010010 <
b10 ;
b10 W
#1825
b1100010 I
0H
1J
1G
b10 N
b0 !
b0 L
1"
0#
1-
#1830
0-
#1835
b1100010 !
b1100010 L
0"
1#
1-
b1110 2
b11 4
#1840
b0 I
1H
b10 N
0J
0G
b11 K
b1010011 M
0-
b1011010 7
b101001101100000 ,
b101001101100000 =
b101001101100000 a
b1010011 <
b11 ;
b11 W
#1845
b1100011 I
0H
1J
1G
b10 N
b0 !
b0 L
1"
0#
1-
#1850
0-
#1855
b1100011 !
b1100011 L
0"
1#
1-
b1111 2
b100 4
