iceBlinkPico-main/projects/cachef/set_associative_cache.vcd
$date
	Wed May  7 14:45:43 2025
$end
$version
	Icarus Verilog
$end
$timescale
	1s
$end
$scope module set_associative_cache_tb $end
$var wire 8 ! rd_data [7:0] $end
$var wire 1 " miss $end
$var wire 1 # hit $end
$var parameter 32 $ ASSOC $end
$var parameter 32 % BLOCK_OFFSET_WIDTH $end
$var parameter 32 & BLOCK_SIZE $end
$var parameter 32 ' CACHE_SIZE $end
$var parameter 32 ( INDEX_WIDTH $end
$var parameter 64 ) NUM_SETS $end
$var parameter 32 * PERIOD $end
$var parameter 34 + TAG_WIDTH $end
$var reg 32 , addr [31:0] $end
$var reg 1 - clk $end
$var reg 1 . reset $end
$var reg 8 / wr_data [7:0] $end
$var reg 1 0 wr_en $end
$var integer 32 1 read_hits [31:0] $end
$var integer 32 2 read_misses [31:0] $end
$var integer 32 3 test_read_hits [31:0] $end
$var integer 32 4 test_read_misses [31:0] $end
$var integer 32 5 test_write_hits [31:0] $end
$var integer 32 6 test_write_misses [31:0] $end
$var integer 32 7 total_accesses [31:0] $end
$var integer 32 8 write_hits [31:0] $end
$var integer 32 9 write_misses [31:0] $end
$scope function generate_addr $end
$var reg 5 : offset [4:0] $end
$var reg 1 ; set_idx $end
$var reg 32 < tag_val [31:0] $end
$upscope $end
$scope module dut $end
$var wire 32 = addr [31:0] $end
$var wire 1 - clk $end
$var wire 1 . reset $end
$var wire 8 > wr_data [7:0] $end
$var wire 1 0 wr_en $end
$var parameter 32 ? ASSOC $end
$var parameter 32 @ BLOCK_OFFSET_WIDTH $end
$var parameter 32 A BLOCK_SIZE $end
$var parameter 32 B CACHE_SIZE $end
$var parameter 32 C INDEX_WIDTH $end
$var parameter 64 D NUM_SETS $end
$var parameter 34 E TAG_WIDTH $end
$var reg 5 F block_offset [4:0] $end
$var reg 1 G current_hit $end
$var reg 1 H current_miss $end
$var reg 8 I current_rd_data [7:0] $end
$var reg 1 # hit $end
$var reg 1 J hit_way $end
$var reg 1 K index $end
$var reg 1 " miss $end
$var reg 8 L rd_data [7:0] $end
$var reg 26 M tag [25:0] $end
$scope begin $ivl_for_loop0 $end
$var integer 32 N i [31:0] $end
$upscope $end
$scope begin $ivl_for_loop1 $end
$var integer 32 O s [31:0] $end
$scope begin $ivl_for_loop2 $end
$var integer 32 P i [31:0] $end
$upscope $end
$upscope $end
$upscope $end
$scope begin $ivl_for_loop10 $end
$var integer 32 Q i [31:0] $end
$upscope $end
$scope begin $ivl_for_loop11 $end
$var integer 32 R i [31:0] $end
$upscope $end
$scope begin $ivl_for_loop12 $end
$var integer 32 S s [31:0] $end
$scope begin $ivl_for_loop13 $end
$var integer 32 T w [31:0] $end
$upscope $end
$upscope $end
$scope begin $ivl_for_loop14 $end
$var integer 32 U s [31:0] $end
$scope begin $ivl_for_loop15 $end
$var integer 32 V w [31:0] $end
$upscope $end
$upscope $end
$scope begin $ivl_for_loop16 $end
$var integer 32 W i [31:0] $end
$upscope $end
$scope begin $ivl_for_loop17 $end
$var integer 32 X o [31:0] $end
$upscope $end
$scope begin $ivl_for_loop18 $end
$var integer 32 Y o [31:0] $end
$upscope $end
$scope begin $ivl_for_loop3 $end
$var integer 32 Z i [31:0] $end
$upscope $end
$scope begin $ivl_for_loop4 $end
$var integer 32 [ i [31:0] $end
$upscope $end
$scope begin $ivl_for_loop5 $end
$var integer 32 \ s [31:0] $end
$upscope $end
$scope begin $ivl_for_loop6 $end
$var integer 32 ] s [31:0] $end
$upscope $end
$scope begin $ivl_for_loop7 $end
$var integer 32 ^ i [31:0] $end
$upscope $end
$scope begin $ivl_for_loop8 $end
$var integer 32 _ i [31:0] $end
$upscope $end
$scope begin $ivl_for_loop9 $end
$var integer 32 ` i [31:0] $end
$upscope $end
$scope task display_test_results $end
$upscope $end
$scope task read_access $end
$var reg 32 a read_addr [31:0] $end
$upscope $end
$scope task write_access $end
$var reg 8 b data_to_write [7:0] $end
$var reg 32 c write_addr [31:0] $end
$upscope $end
$upscope $end
$enddefinitions $end
$comment Show the parameter values. $end
$dumpall
b11010 E
b10 D
b1 C
b10000000 B
b100000 A
b101 @
b10 ?
b11010 +
b1010 *
b10 )
b1 (
b10000000 '
b100000 &
b101 %
b10 $
$end
#0
$dumpvars
bx c
bx b
bx a
b0 `
b0 _
b0 ^
b0 ]
b0 \
b0 [
b0 Z
b0 Y
b0 X
b0 W
b0 V
b0 U
b0 T
b0 S
b0 R
b0 Q
b10 P
b10 O
b10 N
b0 M
b0 L
0K
0J
b0 I
1H
0G
b0 F
b0 >
b0 =
bx <
x;
bx :
b0 9
b0 8
b0 7
bx 6
bx 5
bx 4
bx 3
b0 2
b0 1
x0
b0 /
1.
0-
b0 ,
0#
0"
b0 !
$end
#5
b10 P
b10 O
1-
#10
0-
#15
b10 P
b10 O
1-
#20
0-
#25
b10 P
b10 O
1-
#30
0-
#35
b10 P
b10 O
1-
#40
0-
#45
b10 P
b10 O
1-
#50
0-
0.
#55
0H
1G
b10 N
1"
1-
#60
1H
b10 N
0G
b1 M
0-
b1 7
10
b10101010 /
b10101010 >
b1000000 ,
b1000000 =
b10101010 b
b1000000 c
b1 <
0;
b0 :
b0 6
b0 5
b0 4
b0 3
#65
0H
1J
1G
b10 N
1-
#70
0-
#75
0"
1#
1-
b1 9
b1 6
#80
1H
b10 N
0J
0G
b10 M
0-
b10 7
b10101011 /
b10101011 >
b10000000 ,
b10000000 =
b10101011 b
b10000000 c
b10 <
b1 Z
#85
0H
1G
b10 N
1"
0#
1-
#90
0-
#95
0"
1#
1-
b10 9
b10 6
#100
b10101010 I
1J
b10 N
1G
b1 M
0-
b11 7
00
b1000000 ,
b1000000 =
b1000000 a
b1 <
b0 6
b10 Z
#105
b10101010 !
b10101010 L
1-
#110
0-
#115
1-
b1 1
b1 3
#120
b10101011 I
b10 N
0J
1G
b10 M
0-
b100 7
b10000000 ,
b10000000 =
b10000000 a
b10 <
b1 [
#125
b10101011 !
b10101011 L
1-
#130
0-
#135
1-
b10 1
b10 3
#140
b0 I
1H
b10 N
0G
b11 M
0-
b101 7
10
b11111111 /
b11111111 >
b11000000 ,
b11000000 =
b11111111 b
b11000000 c
b11 <
b0 3
b10 [
#145
0H
1J
1G
b10 N
b0 !
b0 L
1"
0#
1-
#150
0-
#155
0"
1#
1-
b11 9
b1 6
#160
1H
b10 N
0J
0G
b1 M
0-
b110 7
00
b1000000 ,
b1000000 =
b1000000 a
b1 <
b0 6
#165
b10101011 I
0H
1G
b10 N
1"
0#
1-
#170
0-
#175
b10101011 !
b10101011 L
0"
1#
1-
b1 2
b1 4
#180
b11111111 I
1J
b10 N
1G
b11 M
0-
b111 7
b11000000 ,
b11000000 =
b11000000 a
b11 <
b0 4
#185
b11111111 !
b11111111 L
1-
#190
0-
#195
1-
b11 1
b1 3
#200
b0 I
1H
b10 N
0J
0G
b1010 M
0-
b1000 7
10
b10000 /
b10000 >
b1010000000 ,
b1010000000 =
b10000 b
b1010000000 c
b1010 <
b0 3
#205
0H
1J
1G
b10 N
b0 !
b0 L
1"
0#
1-
#210
0-
#215
0"
1#
1-
b100 9
b1 6
#220
1H
b10 N
0J
0G
1K
b1011 M
0-
b1001 7
b10001 /
b10001 >
b1011100000 ,
b1011100000 =
b10001 b
b1011100000 c
b1011 <
1;
b1 \
#225
0H
1G
b10 N
1"
0#
1-
#230
0-
#235
0"
1#
1-
b101 9
b10 6
#240
b10000 I
1J
b10 N
1G
0K
b1010 M
0-
b1010 7
00
b1010000000 ,
b1010000000 =
b1010000000 a
b1010 <
0;
b10 \
#245
b10000 !
b10000 L
1-
#250
0-
#255
1-
b100 1
b1 3
#260
b10001 I
b10 N
0J
1G
1K
b1011 M
0-
b1011 7
b1011100000 ,
b1011100000 =
b1011100000 a
b1011 <
1;
b1 ]
#265
b10001 !
b10001 L
1-
#270
0-
#275
1-
b101 1
b10 3
#280
b0 I
1H
b10 N
0G
b10100 M
0-
b1100 7
10
b100000 /
b100000 >
b10100100000 ,
b10100100000 =
b100000 b
b10100100000 c
b10100 <
b0 6
b0 3
b10 ]
#285
0H
1J
1G
b10 N
b0 !
b0 L
1"
0#
1-
#290
0-
#295
0"
1#
1-
b110 9
b1 6
#300
b10 N
1J
1G
b1 F
0-
b1101 7
b100001 /
b100001 >
b10100100001 ,
b10100100001 =
b100001 b
b10100100001 c
b1 :
#305
b10 N
1J
1G
1-
#310
0-
#315
1-
b1 8
b1 5
#320
b10 N
1J
1G
b11111 F
0-
b1110 7
b101111 /
b101111 >
b10100111111 ,
b10100111111 =
b101111 b
b10100111111 c
b11111 :
#325
b10 N
1J
1G
1-
#330
0-
#335
1-
b10 8
b10 5
#340
b100000 I
b10 N
1J
1G
b0 F
0-
b1111 7
00
b10100100000 ,
b10100100000 =
b10100100000 a
b0 :
#345
b100000 !
b100000 L
1-
#350
0-
#355
1-
b110 1
b1 3
#360
b100001 I
b10 N
1J
1G
b1 F
0-
b10000 7
b10100100001 ,
b10100100001 =
b10100100001 a
b1 :
#365
b100001 !
b100001 L
1-
#370
0-
#375
1-
b111 1
b10 3
#380
b101111 I
b10 N
1J
1G
b11111 F
0-
b10001 7
b10100111111 ,
b10100111111 =
b10100111111 a
b11111 :
#385
b101111 !
b101111 L
1-
#390
0-
#395
1-
b1000 1
b11 3
#400
b0 I
1H
b10 N
0J
0G
b0 F
0K
b11110 M
0-
b10010 7
10
b110000 /
b110000 >
b11110000000 ,
b11110000000 =
b110000 b
b11110000000 c
b11110 <
0;
b0 :
b0 6
b0 5
b0 3
#405
0H
1G
b10 N
b0 !
b0 L
1"
0#
1-
#410
0-
#415
0"
1#
1-
b111 9
b1 6
#420
1H
b10 N
0G
b11111 M
0-
b10011 7
b110001 /
b110001 >
b11111000000 ,
b11111000000 =
b110001 b
b11111000000 c
b11111 <
b1 ^
#425
0H
1J
1G
b10 N
1"
0#
1-
#430
0-
#435
0"
1#
1-
b1000 9
b10 6
#440
1H
b10 N
0J
0G
b100000 M
0-
b10100 7
b110010 /
b110010 >
b100000000000 ,
b100000000000 =
b110010 b
b100000000000 c
b100000 <
b10 ^
#445
0H
1G
b10 N
1"
0#
1-
#450
0-
#455
0"
1#
1-
b1001 9
b11 6
#460
1H
b10 N
0G
b100001 M
0-
b10101 7
b110011 /
b110011 >
b100001000000 ,
b100001000000 =
b110011 b
b100001000000 c
b100001 <
b11 ^
#465
0H
1J
1G
b10 N
1"
0#
1-
#470
0-
#475
0"
1#
1-
b1010 9
b100 6
#480
1H
b10 N
0J
0G
b11110 M
0-
b10110 7
00
b11110000000 ,
b11110000000 =
b11110000000 a
b11110 <
b0 6
b100 ^
#485
b110010 I
0H
1G
b10 N
1"
0#
1-
#490
0-
#495
b110010 !
b110010 L
0"
1#
1-
b10 2
b1 4
#500
b0 I
1H
b10 N
0G
b11111 M
0-
b10111 7
b11111000000 ,
b11111000000 =
b11111000000 a
b11111 <
#505
b110011 I
0H
1J
1G
b10 N
b0 !
b0 L
1"
0#
1-
#510
0-
#515
b110011 !
b110011 L
0"
1#
1-
b11 2
b10 4
#520
b0 I
1H
b10 N
0J
0G
b100000 M
0-
b11000 7
b100000000000 ,
b100000000000 =
b100000000000 a
b100000 <
#525
b110010 I
0H
1G
b10 N
b0 !
b0 L
1"
0#
1-
#530
0-
#535
b110010 !
b110010 L
0"
1#
1-
b100 2
b11 4
#540
b0 I
1H
b10 N
0G
b100001 M
0-
b11001 7
b100001000000 ,
b100001000000 =
b100001000000 a
b100001 <
#545
b110011 I
0H
1J
1G
b10 N
b0 !
b0 L
1"
0#
1-
#550
0-
#555
b110011 !
b110011 L
0"
1#
1-
b101 2
b100 4
#560
b110010 I
b10 N
0J
1G
b100000 M
0-
b11010 7
b100000000000 ,
b100000000000 =
b100000000000 a
b100000 <
#565
b110010 !
b110010 L
1-
#570
0-
#575
1-
b1001 1
b1 3
#580
b110011 I
1J
b10 N
1G
b100001 M
0-
b11011 7
b100001000000 ,
b100001000000 =
b100001000000 a
b100001 <
#585
b110011 !
b110011 L
1-
#590
0-
#595
1-
b1010 1
b10 3
#600
b0 I
1H
b10 N
0J
0G
1K
b101000 M
0-
b11100 7
10
b1000000 /
b1000000 >
b101000100000 ,
b101000100000 =
b1000000 b
b101000100000 c
b101000 <
1;
b0 4
b0 3
#605
0H
1G
b10 N
b0 !
b0 L
1"
0#
1-
#610
0-
#615
0"
1#
1-
b1011 9
b1 6
#620
1H
b10 N
0G
b101001 M
0-
b11101 7
b1000001 /
b1000001 >
b101001100000 ,
b101001100000 =
b1000001 b
b101001100000 c
b101001 <
b1 _
#625
0H
1J
1G
b10 N
1"
0#
1-
#630
0-
#635
0"
1#
1-
b1100 9
b10 6
#640
1H
b10 N
0J
0G
b110010 M
0-
b11110 7
b1010000 /
b1010000 >
b110010100000 ,
b110010100000 =
b1010000 b
b110010100000 c
b110010 <
b10 _
#645
0H
1G
b10 N
1"
0#
1-
#650
0-
#655
0"
1#
1-
b1101 9
b11 6
#660
1H
b10 N
0G
b110011 M
0-
b11111 7
b1010001 /
b1010001 >
b110011100000 ,
b110011100000 =
b1010001 b
b110011100000 c
b110011 <
b1 `
#665
0H
1J
1G
b10 N
1"
0#
1-
#670
0-
#675
0"
1#
1-
b1110 9
b100 6
#680
1H
b10 N
0J
0G
b101000 M
0-
b100000 7
00
b101000100000 ,
b101000100000 =
b101000100000 a
b101000 <
b10 `
#685
b1010000 I
0H
1G
b10 N
1"
0#
1-
#690
0-
#695
b1010000 !
b1010000 L
0"
1#
1-
b110 2
b1 4
#700
b0 I
1H
b10 N
0G
b101001 M
0-
b100001 7
b101001100000 ,
b101001100000 =
b101001100000 a
b101001 <
b1 Q
#705
b1010001 I
0H
1J
1G
b10 N
b0 !
b0 L
1"
0#
1-
#710
0-
#715
b1010001 !
b1010001 L
0"
1#
1-
b111 2
b10 4
#720
b0 I
1H
b10 N
0J
0G
b110010 M
0-
b100010 7
b110010100000 ,
b110010100000 =
b110010100000 a
b110010 <
b10 Q
#725
b1010000 I
0H
1G
b10 N
b0 !
b0 L
1"
0#
1-
#730
0-
#735
b1010000 !
b1010000 L
0"
1#
1-
b1000 2
b11 4
#740
b0 I
1H
b10 N
0G
b110011 M
0-
b100011 7
b110011100000 ,
b110011100000 =
b110011100000 a
b110011 <
b1 R
#745
b1010001 I
0H
1J
1G
b10 N
b0 !
b0 L
1"
0#
1-
#750
0-
#755
b1010001 !
b1010001 L
0"
1#
1-
b1001 2
b100 4
#760
b0 I
1H
b10 N
0J
0G
0K
b111100 M
0-
b100100 7
10
b1100000 /
b1100000 >
b111100000000 ,
b111100000000 =
b1100000 b
b111100000000 c
b111100 <
0;
b0 6
b0 4
b10 R
#765
0H
1G
b10 N
b0 !
b0 L
1"
0#
1-
#770
0-
#775
0"
1#
1-
b1111 9
b1 6
#780
1H
b10 N
0G
b111101 M
0-
b100101 7
b1100001 /
b1100001 >
b111101000000 ,
b111101000000 =
b1100001 b
b111101000000 c
b111101 <
b1 T
#785
0H
1J
1G
b10 N
1"
0#
1-
#790
0-
#795
0"
1#
1-
b10000 9
b10 6
#800
1H
b10 N
0J
0G
1K
b111100 M
0-
b100110 7
b111100100000 ,
b111100100000 =
b111100100000 c
b111100 <
1;
b1 S
b0 T
#805
0H
1G
b10 N
1"
0#
1-
#810
0-
#815
0"
1#
1-
b10001 9
b11 6
#820
1H
b10 N
0G
b111101 M
0-
b100111 7
b1100010 /
b1100010 >
b111101100000 ,
b111101100000 =
b1100010 b
b111101100000 c
b111101 <
b1 T
#825
0H
1J
1G
b10 N
1"
0#
1-
#830
0-
#835
0"
1#
1-
b10010 9
b100 6
#840
b1100000 I
b10 N
0J
1G
0K
b111100 M
0-
b101000 7
00
b111100000000 ,
b111100000000 =
b111100000000 a
b111100 <
0;
b10 S
b10 T
#845
b1100000 !
b1100000 L
1-
#850
0-
#855
1-
b1011 1
b1 3
#860
b1100001 I
1J
b10 N
1G
b111101 M
0-
b101001 7
b111101000000 ,
b111101000000 =
b111101000000 a
b111101 <
b1 V
#865
b1100001 !
b1100001 L
1-
#870
0-
#875
1-
b1100 1
b10 3
#880
b10 N
0J
1G
1K
b111100 M
0-
b101010 7
b111100100000 ,
b111100100000 =
b111100100000 a
b111100 <
1;
b1 U
b0 V
#885
1-
#890
0-
#895
1-
b1101 1
b11 3
#900
b1100010 I
1J
b10 N
1G
b111101 M
0-
b101011 7
b111101100000 ,
b111101100000 =
b111101100000 a
b111101 <
b1 V
#905
b1100010 !
b1100010 L
1-
#910
0-
#915
1-
b1110 1
b100 3
#920
b0 I
1H
b10 N
0J
0G
0K
b1000110 M
0-
b101100 7
b1000110000000 ,
b1000110000000 =
b1000110000000 a
b1000110 <
0;
b0 6
b0 3
b10 U
b10 V
#925
b1100000 I
0H
1G
b10 N
b0 !
b0 L
1"
0#
1-
#930
0-
#935
b1100000 !
b1100000 L
0"
1#
1-
b1010 2
b1 4
#940
b0 I
b10 N
1G
0-
b101101 7
10
b1110000 /
b1110000 >
b1110000 b
b1000110000000 c
#945
b10 N
1G
b0 !
b0 L
1-
#950
0-
#955
1-
b11 8
b1 5
#960
b1110000 I
b10 N
1G
0-
b101110 7
00
#965
b1110000 !
b1110000 L
1-
#970
0-
#975
1-
b1111 1
b1 3
#980
b0 I
1H
b10 N
0G
1K
b1000111 M
0-
b101111 7
b1000111100000 ,
b1000111100000 =
b1000111100000 a
b1000111 <
1;
#985
b1100001 I
0H
1G
b10 N
b0 !
b0 L
1"
0#
1-
#990
0-
#995
b1100001 !
b1100001 L
0"
1#
1-
b1011 2
b10 4
#1000
b0 I
b10 N
1G
0-
b110000 7
10
b1110001 /
b1110001 >
b1110001 b
b1000111100000 c
#1005
b10 N
1G
b0 !
b0 L
1-
#1010
0-
#1015
1-
b100 8
b10 5
#1020
b1110001 I
b10 N
1G
0-
b110001 7
00
#1025
b1110001 !
b1110001 L
1-
#1030
0-
#1035
1-
b10000 1
b10 3
#1040
b1110000 I
b10 N
1G
0K
b1000110 M
0-
b110010 7
b1000110000000 ,
b1000110000000 =
b1000110000000 a
b1000110 <
0;
#1045
b1110000 !
b1110000 L
1-
#1050
0-
#1055
1-
b10001 1
b11 3
#1060
b0 I
1H
b10 N
0G
b1010000 M
0-
b110011 7
b1010000000000 ,
b1010000000000 =
b1010000000000 a
b1010000 <
b0 5
b0 4
b0 3
#1065
b1100001 I
0H
1J
1G
b10 N
b0 !
b0 L
1"
0#
1-
#1070
0-
#1075
b1100001 !
b1100001 L
0"
1#
1-
b1100 2
b1 4
#1080
b0 I
1H
b10 N
0J
0G
1K
b1010001 M
0-
b110100 7
b1010001100000 ,
b1010001100000 =
b1010001100000 a
b1010001 <
1;
b1 W
#1085
b1100010 I
0H
1J
1G
b10 N
b0 !
b0 L
1"
0#
1-
#1090
0-
#1095
b1100010 !
b1100010 L
0"
1#
1-
b1101 2
b10 4
#1100
b0 I
1H
b10 N
0J
0G
0K
b1010010 M
0-
b110101 7
b1010010000000 ,
b1010010000000 =
b1010010000000 a
b1010010 <
0;
b10 W
#1105
b1110000 I
0H
1G
b10 N
b0 !
b0 L
1"
0#
1-
#1110
0-
#1115
b1110000 !
b1110000 L
0"
1#
1-
b1110 2
b11 4
#1120
b0 I
1H
b10 N
0G
1K
b1010011 M
0-
b110110 7
b1010011100000 ,
b1010011100000 =
b1010011100000 a
b1010011 <
1;
b11 W
#1125
b1110001 I
0H
1G
b10 N
b0 !
b0 L
1"
0#
1-
#1130
0-
#1135
b1110001 !
b1110001 L
0"
1#
1-
b1111 2
b100 4
#1140
b0 I
1H
b10 N
0G
0K
b1011010 M
0-
b110111 7
10
b10010000 /
b10010000 >
b1011010000000 ,
b1011010000000 =
b10010000 b
b1011010000000 c
b1011010 <
0;
b0 4
b100 W
#1145
0H
1J
1G
b10 N
b0 !
b0 L
1"
0#
1-
#1150
0-
#1155
0"
1#
1-
b10011 9
b1 6
#1160
b10 N
1J
1G
b1 F
0-
b111000 7
b10010001 /
b10010001 >
b1011010000001 ,
b1011010000001 =
b10010001 b
b1011010000001 c
b1 :
b1 X
#1165
b10 N
1J
1G
1-
#1170
0-
#1175
1-
b101 8
b1 5
#1180
b10 N
1J
1G
b10 F
0-
b111001 7
b10010010 /
b10010010 >
b1011010000010 ,
b1011010000010 =
b10010010 b
b1011010000010 c
b10 :
b10 X
#1185
b10 N
1J
1G
1-
#1190
0-
#1195
1-
b110 8
b10 5
#1200
b10 N
1J
1G
b11 F
0-
b111010 7
b10010011 /
b10010011 >
b1011010000011 ,
b1011010000011 =
b10010011 b
b1011010000011 c
b11 :
b11 X
#1205
b10 N
1J
1G
1-
#1210
0-
#1215
1-
b111 8
b11 5
#1220
b10 N
1J
1G
b100 F
0-
b111011 7
b10010100 /
b10010100 >
b1011010000100 ,
b1011010000100 =
b10010100 b
b1011010000100 c
b100 :
b100 X
#1225
b10 N
1J
1G
1-
#1230
0-
#1235
1-
b1000 8
b100 5
#1240
b10 N
1J
1G
b101 F
0-
b111100 7
b10010101 /
b10010101 >
b1011010000101 ,
b1011010000101 =
b10010101 b
b1011010000101 c
b101 :
b101 X
#1245
b10 N
1J
1G
1-
#1250
0-
#1255
1-
b1001 8
b101 5
#1260
b10 N
1J
1G
b110 F
0-
b111101 7
b10010110 /
b10010110 >
b1011010000110 ,
b1011010000110 =
b10010110 b
b1011010000110 c
b110 :
b110 X
#1265
b10 N
1J
1G
1-
#1270
0-
#1275
1-
b1010 8
b110 5
#1280
b10 N
1J
1G
b111 F
0-
b111110 7
b10010111 /
b10010111 >
b1011010000111 ,
b1011010000111 =
b10010111 b
b1011010000111 c
b111 :
b111 X
#1285
b10 N
1J
1G
1-
#1290
0-
#1295
1-
b1011 8
b111 5
#1300
b10 N
1J
1G
b1000 F
0-
b111111 7
b10011000 /
b10011000 >
b1011010001000 ,
b1011010001000 =
b10011000 b
b1011010001000 c
b1000 :
b1000 X
#1305
b10 N
1J
1G
1-
#1310
0-
#1315
1-
b1100 8
b1000 5
#1320
b10 N
1J
1G
b1001 F
0-
b1000000 7
b10011001 /
b10011001 >
b1011010001001 ,
b1011010001001 =
b10011001 b
b1011010001001 c
b1001 :
b1001 X
#1325
b10 N
1J
1G
1-
#1330
0-
#1335
1-
b1101 8
b1001 5
#1340
b10 N
1J
1G
b1010 F
0-
b1000001 7
b10011010 /
b10011010 >
b1011010001010 ,
b1011010001010 =
b10011010 b
b1011010001010 c
b1010 :
b1010 X
#1345
b10 N
1J
1G
1-
#1350
0-
#1355
1-
b1110 8
b1010 5
#1360
b10 N
1J
1G
b1011 F
0-
b1000010 7
b10011011 /
b10011011 >
b1011010001011 ,
b1011010001011 =
b10011011 b
b1011010001011 c
b1011 :
b1011 X
#1365
b10 N
1J
1G
1-
#1370
0-
#1375
1-
b1111 8
b1011 5
#1380
b10 N
1J
1G
b1100 F
0-
b1000011 7
b10011100 /
b10011100 >
b1011010001100 ,
b1011010001100 =
b10011100 b
b1011010001100 c
b1100 :
b1100 X
#1385
b10 N
1J
1G
1-
#1390
0-
#1395
1-
b10000 8
b1100 5
#1400
b10 N
1J
1G
b1101 F
0-
b1000100 7
b10011101 /
b10011101 >
b1011010001101 ,
b1011010001101 =
b10011101 b
b1011010001101 c
b1101 :
b1101 X
#1405
b10 N
1J
1G
1-
#1410
0-
#1415
1-
b10001 8
b1101 5
#1420
b10 N
1J
1G
b1110 F
0-
b1000101 7
b10011110 /
b10011110 >
b1011010001110 ,
b1011010001110 =
b10011110 b
b1011010001110 c
b1110 :
b1110 X
#1425
b10 N
1J
1G
1-
#1430
0-
#1435
1-
b10010 8
b1110 5
#1440
b10 N
1J
1G
b1111 F
0-
b1000110 7
b10011111 /
b10011111 >
b1011010001111 ,
b1011010001111 =
b10011111 b
b1011010001111 c
b1111 :
b1111 X
#1445
b10 N
1J
1G
1-
#1450
0-
#1455
1-
b10011 8
b1111 5
#1460
b10 N
1J
1G
b10000 F
0-
b1000111 7
b10100000 /
b10100000 >
b1011010010000 ,
b1011010010000 =
b10100000 b
b1011010010000 c
b10000 :
b10000 X
#1465
b10 N
1J
1G
1-
#1470
0-
#1475
1-
b10100 8
b10000 5
#1480
b10 N
1J
1G
b10001 F
0-
b1001000 7
b10100001 /
b10100001 >
b1011010010001 ,
b1011010010001 =
b10100001 b
b1011010010001 c
b10001 :
b10001 X
#1485
b10 N
1J
1G
1-
#1490
0-
#1495
1-
b10101 8
b10001 5
#1500
b10 N
1J
1G
b10010 F
0-
b1001001 7
b10100010 /
b10100010 >
b1011010010010 ,
b1011010010010 =
b10100010 b
b1011010010010 c
b10010 :
b10010 X
#1505
b10 N
1J
1G
1-
#1510
0-
#1515
1-
b10110 8
b10010 5
#1520
b10 N
1J
1G
b10011 F
0-
b1001010 7
b10100011 /
b10100011 >
b1011010010011 ,
b1011010010011 =
b10100011 b
b1011010010011 c
b10011 :
b10011 X
#1525
b10 N
1J
1G
1-
#1530
0-
#1535
1-
b10111 8
b10011 5
#1540
b10 N
1J
1G
b10100 F
0-
b1001011 7
b10100100 /
b10100100 >
b1011010010100 ,
b1011010010100 =
b10100100 b
b1011010010100 c
b10100 :
b10100 X
#1545
b10 N
1J
1G
1-
#1550
0-
#1555
1-
b11000 8
b10100 5
#1560
b10 N
1J
1G
b10101 F
0-
b1001100 7
b10100101 /
b10100101 >
b1011010010101 ,
b1011010010101 =
b10100101 b
b1011010010101 c
b10101 :
b10101 X
#1565
b10 N
1J
1G
1-
#1570
0-
#1575
1-
b11001 8
b10101 5
#1580
b10 N
1J
1G
b10110 F
0-
b1001101 7
b10100110 /
b10100110 >
b1011010010110 ,
b1011010010110 =
b10100110 b
b1011010010110 c
b10110 :
b10110 X
#1585
b10 N
1J
1G
1-
#1590
0-
#1595
1-
b11010 8
b10110 5
#1600
b10 N
1J
1G
b10111 F
0-
b1001110 7
b10100111 /
b10100111 >
b1011010010111 ,
b1011010010111 =
b10100111 b
b1011010010111 c
b10111 :
b10111 X
#1605
b10 N
1J
1G
1-
#1610
0-
#1615
1-
b11011 8
b10111 5
#1620
b10 N
1J
1G
b11000 F
0-
b1001111 7
b10101000 /
b10101000 >
b1011010011000 ,
b1011010011000 =
b10101000 b
b1011010011000 c
b11000 :
b11000 X
#1625
b10 N
1J
1G
1-
#1630
0-
#1635
1-
b11100 8
b11000 5
#1640
b10 N
1J
1G
b11001 F
0-
b1010000 7
b10101001 /
b10101001 >
b1011010011001 ,
b1011010011001 =
b10101001 b
b1011010011001 c
b11001 :
b11001 X
#1645
b10 N
1J
1G
1-
#1650
0-
#1655
1-
b11101 8
b11001 5
#1660
b10 N
1J
1G
b11010 F
0-
b1010001 7
b10101010 /
b10101010 >
b1011010011010 ,
b1011010011010 =
b10101010 b
b1011010011010 c
b11010 :
b11010 X
#1665
b10 N
1J
1G
1-
#1670
0-
#1675
1-
b11110 8
b11010 5
#1680
b10 N
1J
1G
b11011 F
0-
b1010010 7
b10101011 /
b10101011 >
b1011010011011 ,
b1011010011011 =
b10101011 b
b1011010011011 c
b11011 :
b11011 X
#1685
b10 N
1J
1G
1-
#1690
0-
#1695
1-
b11111 8
b11011 5
#1700
b10 N
1J
1G
b11100 F
0-
b1010011 7
b10101100 /
b10101100 >
b1011010011100 ,
b1011010011100 =
b10101100 b
b1011010011100 c
b11100 :
b11100 X
#1705
b10 N
1J
1G
1-
#1710
0-
#1715
1-
b100000 8
b11100 5
#1720
b10 N
1J
1G
b11101 F
0-
b1010100 7
b10101101 /
b10101101 >
b1011010011101 ,
b1011010011101 =
b10101101 b
b1011010011101 c
b11101 :
b11101 X
#1725
b10 N
1J
1G
1-
#1730
0-
#1735
1-
b100001 8
b11101 5
#1740
b10 N
1J
1G
b11110 F
0-
b1010101 7
b10101110 /
b10101110 >
b1011010011110 ,
b1011010011110 =
b10101110 b
b1011010011110 c
b11110 :
b11110 X
#1745
b10 N
1J
1G
1-
#1750
0-
#1755
1-
b100010 8
b11110 5
#1760
b10 N
1J
1G
b11111 F
0-
b1010110 7
b10101111 /
b10101111 >
b1011010011111 ,
b1011010011111 =
b10101111 b
b1011010011111 c
b11111 :
b11111 X
#1765
b10 N
1J
1G
1-
#1770
0-
#1775
1-
b100011 8
b11111 5
#1780
b10010000 I
b10 N
1J
1G
b0 F
0-
b1010111 7
00
b1011010000000 ,
b1011010000000 =
b1011010000000 a
b0 :
b100000 X
#1785
b10010000 !
b10010000 L
1-
#1790
0-
#1795
1-
b10010 1
b1 3
#1800
b10010001 I
b10 N
1J
1G
b1 F
0-
b1011000 7
b1011010000001 ,
b1011010000001 =
b1011010000001 a
b1 :
b1 Y
#1805
b10010001 !
b10010001 L
1-
#1810
0-
#1815
1-
b10011 1
b10 3
#1820
b10010010 I
b10 N
1J
1G
b10 F
0-
b1011001 7
b1011010000010 ,
b1011010000010 =
b1011010000010 a
b10 :
b10 Y
#1825
b10010010 !
b10010010 L
1-
#1830
0-
#1835
1-
b10100 1
b11 3
#1840
b10010011 I
b10 N
1J
1G
b11 F
0-
b1011010 7
b1011010000011 ,
b1011010000011 =
b1011010000011 a
b11 :
b11 Y
#1845
b10010011 !
b10010011 L
1-
#1850
0-
#1855
1-
b10101 1
b100 3
#1860
b10010100 I
b10 N
1J
1G
b100 F
0-
b1011011 7
b1011010000100 ,
b1011010000100 =
b1011010000100 a
b100 :
b100 Y
#1865
b10010100 !
b10010100 L
1-
#1870
0-
#1875
1-
b10110 1
b101 3
#1880
b10010101 I
b10 N
1J
1G
b101 F
0-
b1011100 7
b1011010000101 ,
b1011010000101 =
b1011010000101 a
b101 :
b101 Y
#1885
b10010101 !
b10010101 L
1-
#1890
0-
#1895
1-
b10111 1
b110 3
