iceBlinkPico-main/projects/src/gtkwave/alu.vcd
$date
	Sun Apr 20 19:58:20 2025
$end
$version
	Icarus Verilog
$end
$timescale
	1ps
$end
$scope module alu_tb $end
$var wire 1 ! zero $end
$var wire 32 " result [31:0] $end
$var reg 32 # a [31:0] $end
$var reg 4 $ alu_op [3:0] $end
$var reg 32 % b [31:0] $end
$scope module uut $end
$var wire 32 & a [31:0] $end
$var wire 4 ' alu_op [3:0] $end
$var wire 32 ( b [31:0] $end
$var reg 32 ) result [31:0] $end
$var reg 32 * shift_amount [31:0] $end
$var reg 1 ! zero $end
$upscope $end
$upscope $end
$enddefinitions $end
$comment Show the parameter values. $end
$dumpall
$end
#0
$dumpvars
b10100 *
b11110 )
b10100 (
b0 '
b1010 &
b10100 %
b0 $
b1010 #
b11110 "
0!
$end
#10000
b1010 "
b1010 )
b11111111111111111111111111110110 #
b11111111111111111111111111110110 &
#20000
b1 $
b1 '
b11110 #
b11110 &
#30000
b11111111111111111111111111110110 "
b11111111111111111111111111110110 )
b11110 *
b11110 %
b11110 (
b10100 #
b10100 &
#40000
1!
b0 "
b0 )
b10100 *
b10100 %
b10100 (
#50000
b1111 *
b10 $
b10 '
b1111000011110000111100001111 %
b1111000011110000111100001111 (
b11110000111100001111000011110000 #
b11110000111100001111000011110000 &
#60000
0!
b11111111111111111111111111111111 "
b11111111111111111111111111111111 )
b11 $
b11 '
#70000
b100 $
b100 '
#80000
b1 "
b1 )
b10100 *
b101 $
b101 '
b10100 %
b10100 (
b1010 #
b1010 &
#90000
b101 *
b101 %
b101 (
b11111111111111111111111111110110 #
b11111111111111111111111111110110 &
#100000
b1 *
b1 %
b1 (
b11111111111111111111111111111111 #
b11111111111111111111111111111111 &
#110000
b10100 *
b1000 $
b1000 '
b10100 %
b10100 (
b1010 #
b1010 &
#120000
1!
b0 "
b0 )
b1 *
b1 %
b1 (
b11111111111111111111111111111111 #
b11111111111111111111111111111111 &
#130000
0!
b100000 "
b100000 )
b10 *
b110 $
b110 '
b10 %
b10 (
b1000 #
b1000 &
#140000
b10000000000000000000000000000000 "
b10000000000000000000000000000000 )
b1 *
b1 %
b1 (
b1000000000000000000000000000000 #
b1000000000000000000000000000000 &
#150000
b1000 "
b1000 )
b10 *
b111 $
b111 '
b10 %
b10 (
b100000 #
b100000 &
#160000
b1000000000000000000000000000 "
b1000000000000000000000000000 )
b100 *
b100 %
b100 (
b10000000000000000000000000000000 #
b10000000000000000000000000000000 &
#170000
b11111000000000000000000000000000 "
b11111000000000000000000000000000 )
b1001 $
b1001 '
#180000
b1000 "
b1000 )
b10 *
b10 %
b10 (
b100000 #
b100000 &
#190000
b10000000000000000000000000000000 "
b10000000000000000000000000000000 )
b1 *
b0 $
b0 '
b1 %
b1 (
b1111111111111111111111111111111 #
b1111111111111111111111111111111 &
#200000
1!
b0 "
b0 )
b0 *
b1 $
b1 '
b10000000000000000000000000000000 %
b10000000000000000000000000000000 (
b10000000000000000000000000000000 #
b10000000000000000000000000000000 &
